%YAML 1.1
%TAG !u! tag:unity3d.com,2011:
--- !u!1 &5419807266010954372
GameObject:
  m_ObjectHideFlags: 0
  m_CorrespondingSourceObject: {fileID: 0}
  m_PrefabInstance: {fileID: 0}
  m_PrefabAsset: {fileID: 0}
  serializedVersion: 6
  m_Component:
  - component: {fileID: 5419807266010954378}
  - component: {fileID: 5419807266010954373}
  m_Layer: 0
  m_Name: VolumeManager
  m_TagString: VolumeSound
  m_Icon: {fileID: 0}
  m_NavMeshLayer: 0
  m_StaticEditorFlags: 0
  m_IsActive: 1
--- !u!4 &5419807266010954378
Transform:
  m_ObjectHideFlags: 0
  m_CorrespondingSourceObject: {fileID: 0}
  m_PrefabInstance: {fileID: 0}
  m_PrefabAsset: {fileID: 0}
  m_GameObject: {fileID: 5419807266010954372}
  m_LocalRotation: {x: 0, y: 0, z: 0, w: 1}
  m_LocalPosition: {x: 393.08093, y: 197.05382, z: 7.375}
  m_LocalScale: {x: 1, y: 1, z: 1}
  m_Children: []
  m_Father: {fileID: 0}
  m_RootOrder: 0
  m_LocalEulerAnglesHint: {x: 0, y: 0, z: 0}
--- !u!114 &5419807266010954373
MonoBehaviour:
  m_ObjectHideFlags: 0
  m_CorrespondingSourceObject: {fileID: 0}
  m_PrefabInstance: {fileID: 0}
  m_PrefabAsset: {fileID: 0}
  m_GameObject: {fileID: 5419807266010954372}
  m_Enabled: 1
  m_EditorHideFlags: 0
  m_Script: {fileID: 11500000, guid: de4b25ef0c80ba0468dc05494d323023, type: 3}
  m_Name: 
  m_EditorClassIdentifier: 
  masterVol: 1
  musicVol: 1
  sfxVol: 1
  MasterSlider: {fileID: 0}
  MusicSlider: {fileID: 0}
  SFXSlider: {fileID: 0}
