%YAML 1.1
%TAG !u! tag:unity3d.com,2011:
--- !u!1 &2160549937548280958
GameObject:
  m_ObjectHideFlags: 0
  m_CorrespondingSourceObject: {fileID: 0}
  m_PrefabInstance: {fileID: 0}
  m_PrefabAsset: {fileID: 0}
  serializedVersion: 6
  m_Component:
  - component: {fileID: 2160549937548280954}
  - component: {fileID: 2160549937548280955}
  - component: {fileID: 2160549937548280953}
  - component: {fileID: 2160549937548280952}
  m_Layer: 0
  m_Name: Exit
  m_TagString: Untagged
  m_Icon: {fileID: 0}
  m_NavMeshLayer: 0
  m_StaticEditorFlags: 0
  m_IsActive: 1
--- !u!4 &2160549937548280954
Transform:
  m_ObjectHideFlags: 0
  m_CorrespondingSourceObject: {fileID: 0}
  m_PrefabInstance: {fileID: 0}
  m_PrefabAsset: {fileID: 0}
  m_GameObject: {fileID: 2160549937548280958}
  m_LocalRotation: {x: 0, y: 0, z: 0, w: 1}
  m_LocalPosition: {x: 7.069, y: -1.861, z: 0}
  m_LocalScale: {x: 1.3333334, y: 1.3333334, z: 1}
  m_Children:
  - {fileID: 1911609343}
  m_Father: {fileID: 0}
  m_RootOrder: 0
  m_LocalEulerAnglesHint: {x: 0, y: 0, z: 0}
--- !u!212 &2160549937548280955
SpriteRenderer:
  m_ObjectHideFlags: 0
  m_CorrespondingSourceObject: {fileID: 0}
  m_PrefabInstance: {fileID: 0}
  m_PrefabAsset: {fileID: 0}
  m_GameObject: {fileID: 2160549937548280958}
  m_Enabled: 1
  m_CastShadows: 0
  m_ReceiveShadows: 0
  m_DynamicOccludee: 1
  m_MotionVectors: 1
  m_LightProbeUsage: 1
  m_ReflectionProbeUsage: 1
  m_RenderingLayerMask: 1
  m_RendererPriority: 0
  m_Materials:
  - {fileID: 10754, guid: 0000000000000000f000000000000000, type: 0}
  m_StaticBatchInfo:
    firstSubMesh: 0
    subMeshCount: 0
  m_StaticBatchRoot: {fileID: 0}
  m_ProbeAnchor: {fileID: 0}
  m_LightProbeVolumeOverride: {fileID: 0}
  m_ScaleInLightmap: 1
  m_PreserveUVs: 0
  m_IgnoreNormalsForChartDetection: 0
  m_ImportantGI: 0
  m_StitchLightmapSeams: 0
  m_SelectedEditorRenderState: 0
  m_MinimumChartSize: 4
  m_AutoUVMaxDistance: 0.5
  m_AutoUVMaxAngle: 89
  m_LightmapParameters: {fileID: 0}
  m_SortingLayerID: 0
  m_SortingLayer: 0
  m_SortingOrder: 0
  m_Sprite: {fileID: 21300000, guid: b35f954e08e7de94595d7a6f1e0eff3e, type: 3}
  m_Color: {r: 1, g: 1, b: 1, a: 1}
  m_FlipX: 0
  m_FlipY: 0
  m_DrawMode: 0
  m_Size: {x: 5.5, y: 5.5}
  m_AdaptiveModeThreshold: 0.5
  m_SpriteTileMode: 0
  m_WasSpriteAssigned: 1
  m_MaskInteraction: 0
  m_SpriteSortPoint: 0
--- !u!61 &2160549937548280953
BoxCollider2D:
  m_ObjectHideFlags: 0
  m_CorrespondingSourceObject: {fileID: 0}
  m_PrefabInstance: {fileID: 0}
  m_PrefabAsset: {fileID: 0}
  m_GameObject: {fileID: 2160549937548280958}
  m_Enabled: 1
  m_Density: 1
  m_Material: {fileID: 0}
  m_IsTrigger: 1
  m_UsedByEffector: 0
  m_UsedByComposite: 0
  m_Offset: {x: 0.0032507181, y: -0.0000017881393}
  m_SpriteTilingProperty:
    border: {x: 0, y: 0, z: 0, w: 0}
    pivot: {x: 0.5, y: 0.5}
    oldSize: {x: 2, y: 2.2}
    newSize: {x: 5.5, y: 5.5}
    adaptiveTilingThreshold: 0.5
    drawMode: 0
    adaptiveTiling: 0
  m_AutoTiling: 0
  serializedVersion: 2
  m_Size: {x: 1.6189258, y: 1.8926282}
  m_EdgeRadius: 0
--- !u!114 &2160549937548280952
MonoBehaviour:
  m_ObjectHideFlags: 0
  m_CorrespondingSourceObject: {fileID: 0}
  m_PrefabInstance: {fileID: 0}
  m_PrefabAsset: {fileID: 0}
  m_GameObject: {fileID: 2160549937548280958}
  m_Enabled: 1
  m_EditorHideFlags: 0
  m_Script: {fileID: 11500000, guid: 509168c0a6ac0b74e850a9e3c9c35dd0, type: 3}
  m_Name: 
  m_EditorClassIdentifier: 
  index: 1
  newV: {x: -7.84, y: -4.12}
--- !u!1001 &1911984835
PrefabInstance:
  m_ObjectHideFlags: 0
  serializedVersion: 2
  m_Modification:
    m_TransformParent: {fileID: 2160549937548280954}
    m_Modifications:
    - target: {fileID: 171086, guid: 6749a1da7a6538e4bae6c320db525d94, type: 3}
      propertyPath: m_Name
      value: SpinPortalBlue
      objectReference: {fileID: 0}
    - target: {fileID: 410940, guid: 6749a1da7a6538e4bae6c320db525d94, type: 3}
      propertyPath: m_LocalPosition.x
      value: -11.373169
      objectReference: {fileID: 0}
    - target: {fileID: 410940, guid: 6749a1da7a6538e4bae6c320db525d94, type: 3}
      propertyPath: m_LocalPosition.y
      value: -6.076412
      objectReference: {fileID: 0}
    - target: {fileID: 410940, guid: 6749a1da7a6538e4bae6c320db525d94, type: 3}
      propertyPath: m_LocalPosition.z
      value: 0
      objectReference: {fileID: 0}
    - target: {fileID: 410940, guid: 6749a1da7a6538e4bae6c320db525d94, type: 3}
      propertyPath: m_LocalRotation.x
      value: -0.7071068
      objectReference: {fileID: 0}
    - target: {fileID: 410940, guid: 6749a1da7a6538e4bae6c320db525d94, type: 3}
      propertyPath: m_LocalRotation.y
      value: -0
      objectReference: {fileID: 0}
    - target: {fileID: 410940, guid: 6749a1da7a6538e4bae6c320db525d94, type: 3}
      propertyPath: m_LocalRotation.z
      value: -0
      objectReference: {fileID: 0}
    - target: {fileID: 410940, guid: 6749a1da7a6538e4bae6c320db525d94, type: 3}
      propertyPath: m_LocalRotation.w
      value: 0.7071068
      objectReference: {fileID: 0}
    - target: {fileID: 410940, guid: 6749a1da7a6538e4bae6c320db525d94, type: 3}
      propertyPath: m_RootOrder
      value: 0
      objectReference: {fileID: 0}
    - target: {fileID: 410940, guid: 6749a1da7a6538e4bae6c320db525d94, type: 3}
      propertyPath: m_LocalEulerAnglesHint.x
      value: -90
      objectReference: {fileID: 0}
    - target: {fileID: 410940, guid: 6749a1da7a6538e4bae6c320db525d94, type: 3}
      propertyPath: m_LocalEulerAnglesHint.y
      value: 0
      objectReference: {fileID: 0}
    - target: {fileID: 410940, guid: 6749a1da7a6538e4bae6c320db525d94, type: 3}
      propertyPath: m_LocalEulerAnglesHint.z
      value: 0
      objectReference: {fileID: 0}
    - target: {fileID: 410940, guid: 6749a1da7a6538e4bae6c320db525d94, type: 3}
      propertyPath: m_LocalScale.x
      value: 1.3333299
      objectReference: {fileID: 0}
    - target: {fileID: 410940, guid: 6749a1da7a6538e4bae6c320db525d94, type: 3}
      propertyPath: m_LocalScale.z
      value: 1.333331
      objectReference: {fileID: 0}
    m_RemovedComponents: []
  m_SourcePrefab: {fileID: 100100000, guid: 6749a1da7a6538e4bae6c320db525d94, type: 3}
--- !u!4 &1911609343 stripped
Transform:
  m_CorrespondingSourceObject: {fileID: 410940, guid: 6749a1da7a6538e4bae6c320db525d94,
    type: 3}
  m_PrefabInstance: {fileID: 1911984835}
  m_PrefabAsset: {fileID: 0}
