%YAML 1.1
%TAG !u! tag:unity3d.com,2011:
--- !u!1 &3576213785303541280
GameObject:
  m_ObjectHideFlags: 0
  m_CorrespondingSourceObject: {fileID: 0}
  m_PrefabInstance: {fileID: 0}
  m_PrefabAsset: {fileID: 0}
  serializedVersion: 6
  m_Component:
  - component: {fileID: 6000820155959660396}
  - component: {fileID: 7492816761655869852}
  - component: {fileID: 1093162117862825473}
  m_Layer: 31
  m_Name: Layer1
  m_TagString: Untagged
  m_Icon: {fileID: 0}
  m_NavMeshLayer: 0
  m_StaticEditorFlags: 0
  m_IsActive: 1
--- !u!4 &6000820155959660396
Transform:
  m_ObjectHideFlags: 0
  m_CorrespondingSourceObject: {fileID: 0}
  m_PrefabInstance: {fileID: 0}
  m_PrefabAsset: {fileID: 0}
  m_GameObject: {fileID: 3576213785303541280}
  m_LocalRotation: {x: -0, y: -0, z: -0, w: 1}
  m_LocalPosition: {x: 0, y: 0, z: 0}
  m_LocalScale: {x: 1, y: 1, z: 1}
  m_Children: []
  m_Father: {fileID: 963544362155369964}
  m_RootOrder: 0
  m_LocalEulerAnglesHint: {x: 0, y: 0, z: 0}
--- !u!1839735485 &7492816761655869852
Tilemap:
  m_ObjectHideFlags: 0
  m_CorrespondingSourceObject: {fileID: 0}
  m_PrefabInstance: {fileID: 0}
  m_PrefabAsset: {fileID: 0}
  m_GameObject: {fileID: 3576213785303541280}
  m_Enabled: 1
  m_Tiles:
  - first: {x: -3, y: -1, z: 0}
    second:
      m_TileIndex: 0
      m_TileSpriteIndex: 0
      m_TileMatrixIndex: 0
      m_TileColorIndex: 0
      m_ObjectToInstantiate: {fileID: 0}
      m_TileFlags: 1
      m_ColliderType: 1
  - first: {x: -2, y: -1, z: 0}
    second:
      m_TileIndex: 1
      m_TileSpriteIndex: 1
      m_TileMatrixIndex: 0
      m_TileColorIndex: 0
      m_ObjectToInstantiate: {fileID: 0}
      m_TileFlags: 1
      m_ColliderType: 1
  - first: {x: -1, y: -1, z: 0}
    second:
      m_TileIndex: 2
      m_TileSpriteIndex: 2
      m_TileMatrixIndex: 0
      m_TileColorIndex: 0
      m_ObjectToInstantiate: {fileID: 0}
      m_TileFlags: 1
      m_ColliderType: 1
  - first: {x: 0, y: -1, z: 0}
    second:
      m_TileIndex: 3
      m_TileSpriteIndex: 3
      m_TileMatrixIndex: 0
      m_TileColorIndex: 0
      m_ObjectToInstantiate: {fileID: 0}
      m_TileFlags: 1
      m_ColliderType: 1
  - first: {x: 1, y: -1, z: 0}
    second:
      m_TileIndex: 4
      m_TileSpriteIndex: 4
      m_TileMatrixIndex: 0
      m_TileColorIndex: 0
      m_ObjectToInstantiate: {fileID: 0}
      m_TileFlags: 1
      m_ColliderType: 1
  - first: {x: 2, y: -1, z: 0}
    second:
      m_TileIndex: 5
      m_TileSpriteIndex: 5
      m_TileMatrixIndex: 0
      m_TileColorIndex: 0
      m_ObjectToInstantiate: {fileID: 0}
      m_TileFlags: 1
      m_ColliderType: 1
  - first: {x: 3, y: -1, z: 0}
    second:
      m_TileIndex: 6
      m_TileSpriteIndex: 6
      m_TileMatrixIndex: 0
      m_TileColorIndex: 0
      m_ObjectToInstantiate: {fileID: 0}
      m_TileFlags: 1
      m_ColliderType: 1
  - first: {x: 4, y: -1, z: 0}
    second:
      m_TileIndex: 7
      m_TileSpriteIndex: 7
      m_TileMatrixIndex: 0
      m_TileColorIndex: 0
      m_ObjectToInstantiate: {fileID: 0}
      m_TileFlags: 1
      m_ColliderType: 1
  - first: {x: 5, y: -1, z: 0}
    second:
      m_TileIndex: 8
      m_TileSpriteIndex: 8
      m_TileMatrixIndex: 0
      m_TileColorIndex: 0
      m_ObjectToInstantiate: {fileID: 0}
      m_TileFlags: 1
      m_ColliderType: 1
  - first: {x: 6, y: -1, z: 0}
    second:
      m_TileIndex: 9
      m_TileSpriteIndex: 9
      m_TileMatrixIndex: 0
      m_TileColorIndex: 0
      m_ObjectToInstantiate: {fileID: 0}
      m_TileFlags: 1
      m_ColliderType: 1
  - first: {x: 7, y: -1, z: 0}
    second:
      m_TileIndex: 10
      m_TileSpriteIndex: 10
      m_TileMatrixIndex: 0
      m_TileColorIndex: 0
      m_ObjectToInstantiate: {fileID: 0}
      m_TileFlags: 1
      m_ColliderType: 1
  - first: {x: 8, y: -1, z: 0}
    second:
      m_TileIndex: 11
      m_TileSpriteIndex: 11
      m_TileMatrixIndex: 0
      m_TileColorIndex: 0
      m_ObjectToInstantiate: {fileID: 0}
      m_TileFlags: 1
      m_ColliderType: 1
  - first: {x: 9, y: -1, z: 0}
    second:
      m_TileIndex: 12
      m_TileSpriteIndex: 12
      m_TileMatrixIndex: 0
      m_TileColorIndex: 0
      m_ObjectToInstantiate: {fileID: 0}
      m_TileFlags: 1
      m_ColliderType: 1
  - first: {x: 10, y: -1, z: 0}
    second:
      m_TileIndex: 13
      m_TileSpriteIndex: 13
      m_TileMatrixIndex: 0
      m_TileColorIndex: 0
      m_ObjectToInstantiate: {fileID: 0}
      m_TileFlags: 1
      m_ColliderType: 1
  - first: {x: 11, y: -1, z: 0}
    second:
      m_TileIndex: 14
      m_TileSpriteIndex: 14
      m_TileMatrixIndex: 0
      m_TileColorIndex: 0
      m_ObjectToInstantiate: {fileID: 0}
      m_TileFlags: 1
      m_ColliderType: 1
  - first: {x: 12, y: -1, z: 0}
    second:
      m_TileIndex: 15
      m_TileSpriteIndex: 15
      m_TileMatrixIndex: 0
      m_TileColorIndex: 0
      m_ObjectToInstantiate: {fileID: 0}
      m_TileFlags: 1
      m_ColliderType: 1
  - first: {x: 13, y: -1, z: 0}
    second:
      m_TileIndex: 16
      m_TileSpriteIndex: 16
      m_TileMatrixIndex: 0
      m_TileColorIndex: 0
      m_ObjectToInstantiate: {fileID: 0}
      m_TileFlags: 1
      m_ColliderType: 1
  - first: {x: 14, y: -1, z: 0}
    second:
      m_TileIndex: 17
      m_TileSpriteIndex: 17
      m_TileMatrixIndex: 0
      m_TileColorIndex: 0
      m_ObjectToInstantiate: {fileID: 0}
      m_TileFlags: 1
      m_ColliderType: 1
  m_AnimatedTiles: {}
  m_TileAssetArray:
  - m_RefCount: 1
    m_Data: {fileID: 11400000, guid: c1b273bda104b2c4aa5d480adad4d41d, type: 2}
  - m_RefCount: 1
    m_Data: {fileID: 11400000, guid: a7ced82242a9bb042b3736cd8bcbd7d5, type: 2}
  - m_RefCount: 1
    m_Data: {fileID: 11400000, guid: b56d3cce8a888014282d5a42c07da532, type: 2}
  - m_RefCount: 1
    m_Data: {fileID: 11400000, guid: 2c304b8e20097b54cb07c0c7e63df9df, type: 2}
  - m_RefCount: 1
    m_Data: {fileID: 11400000, guid: 1ffff68cf284c914a8466b19f369b232, type: 2}
  - m_RefCount: 1
    m_Data: {fileID: 11400000, guid: ff0189b3eda6ba346b9ff1a8ea51cf2f, type: 2}
  - m_RefCount: 1
    m_Data: {fileID: 11400000, guid: 55c51c1802786af478b19a2894672e67, type: 2}
  - m_RefCount: 1
    m_Data: {fileID: 11400000, guid: 21c98a8e4571eb04abdba9ae1b4bb14d, type: 2}
  - m_RefCount: 1
    m_Data: {fileID: 11400000, guid: ce4d465979ace564281746ddbab625ea, type: 2}
  - m_RefCount: 1
    m_Data: {fileID: 11400000, guid: 373c4ee799725cd42b38de7c0756c8be, type: 2}
  - m_RefCount: 1
    m_Data: {fileID: 11400000, guid: 07d3dd01e2149ec4c9d8531bbfc5dd4b, type: 2}
  - m_RefCount: 1
    m_Data: {fileID: 11400000, guid: debf3f0f2ff759d4eb7a5363ca218bf0, type: 2}
  - m_RefCount: 1
    m_Data: {fileID: 11400000, guid: e430965ce3637fb489c6b6d3b6b5abf6, type: 2}
  - m_RefCount: 1
    m_Data: {fileID: 11400000, guid: a6f5955a5aa9b4647ab7eb70b1234cd8, type: 2}
  - m_RefCount: 1
    m_Data: {fileID: 11400000, guid: caea1d75fd363714c9f2941778c1bf00, type: 2}
  - m_RefCount: 1
    m_Data: {fileID: 11400000, guid: 20a2c872abe07cb4a98285d24f95f6b8, type: 2}
  - m_RefCount: 1
    m_Data: {fileID: 11400000, guid: 9dc55323368203c4cbe64010e631d704, type: 2}
  - m_RefCount: 1
    m_Data: {fileID: 11400000, guid: 1c98cfffc57b10748a2690831f22ce38, type: 2}
  m_TileSpriteArray:
  - m_RefCount: 1
    m_Data: {fileID: 21300000, guid: 9a195ffeed0aa994b8121341e1f37deb, type: 3}
  - m_RefCount: 1
    m_Data: {fileID: 21300002, guid: 9a195ffeed0aa994b8121341e1f37deb, type: 3}
  - m_RefCount: 1
    m_Data: {fileID: 21300004, guid: 9a195ffeed0aa994b8121341e1f37deb, type: 3}
  - m_RefCount: 1
    m_Data: {fileID: 21300006, guid: 9a195ffeed0aa994b8121341e1f37deb, type: 3}
  - m_RefCount: 1
    m_Data: {fileID: 21300008, guid: 9a195ffeed0aa994b8121341e1f37deb, type: 3}
  - m_RefCount: 1
    m_Data: {fileID: 21300010, guid: 9a195ffeed0aa994b8121341e1f37deb, type: 3}
  - m_RefCount: 1
    m_Data: {fileID: 21300012, guid: 9a195ffeed0aa994b8121341e1f37deb, type: 3}
  - m_RefCount: 1
    m_Data: {fileID: 21300014, guid: 9a195ffeed0aa994b8121341e1f37deb, type: 3}
  - m_RefCount: 1
    m_Data: {fileID: 21300016, guid: 9a195ffeed0aa994b8121341e1f37deb, type: 3}
  - m_RefCount: 1
    m_Data: {fileID: 21300018, guid: 9a195ffeed0aa994b8121341e1f37deb, type: 3}
  - m_RefCount: 1
    m_Data: {fileID: 21300020, guid: 9a195ffeed0aa994b8121341e1f37deb, type: 3}
  - m_RefCount: 1
    m_Data: {fileID: 21300022, guid: 9a195ffeed0aa994b8121341e1f37deb, type: 3}
  - m_RefCount: 1
    m_Data: {fileID: 21300024, guid: 9a195ffeed0aa994b8121341e1f37deb, type: 3}
  - m_RefCount: 1
    m_Data: {fileID: 21300026, guid: 9a195ffeed0aa994b8121341e1f37deb, type: 3}
  - m_RefCount: 1
    m_Data: {fileID: 21300028, guid: 9a195ffeed0aa994b8121341e1f37deb, type: 3}
  - m_RefCount: 1
    m_Data: {fileID: 21300030, guid: 9a195ffeed0aa994b8121341e1f37deb, type: 3}
  - m_RefCount: 1
    m_Data: {fileID: 21300032, guid: 9a195ffeed0aa994b8121341e1f37deb, type: 3}
  - m_RefCount: 1
    m_Data: {fileID: 21300034, guid: 9a195ffeed0aa994b8121341e1f37deb, type: 3}
  m_TileMatrixArray:
  - m_RefCount: 18
    m_Data:
      e00: 1
      e01: 0
      e02: 0
      e03: 0
      e10: 0
      e11: 1
      e12: 0
      e13: 0
      e20: 0
      e21: 0
      e22: 1
      e23: 0
      e30: 0
      e31: 0
      e32: 0
      e33: 1
  m_TileColorArray:
  - m_RefCount: 18
    m_Data: {r: 1, g: 1, b: 1, a: 1}
  m_AnimationFrameRate: 1
  m_Color: {r: 1, g: 1, b: 1, a: 1}
  m_Origin: {x: -3, y: -1, z: 0}
  m_Size: {x: 18, y: 1, z: 1}
  m_TileAnchor: {x: 0.5, y: 0.5, z: 0}
  m_TileOrientation: 0
  m_TileOrientationMatrix:
    e00: 1
    e01: 0
    e02: 0
    e03: 0
    e10: 0
    e11: 1
    e12: 0
    e13: 0
    e20: 0
    e21: 0
    e22: 1
    e23: 0
    e30: 0
    e31: 0
    e32: 0
    e33: 1
--- !u!483693784 &1093162117862825473
TilemapRenderer:
  m_ObjectHideFlags: 0
  m_CorrespondingSourceObject: {fileID: 0}
  m_PrefabInstance: {fileID: 0}
  m_PrefabAsset: {fileID: 0}
  m_GameObject: {fileID: 3576213785303541280}
  m_Enabled: 0
  m_CastShadows: 0
  m_ReceiveShadows: 0
  m_DynamicOccludee: 0
  m_MotionVectors: 1
  m_LightProbeUsage: 0
  m_ReflectionProbeUsage: 0
  m_RenderingLayerMask: 1
  m_RendererPriority: 0
  m_Materials:
  - {fileID: 10754, guid: 0000000000000000f000000000000000, type: 0}
  m_StaticBatchInfo:
    firstSubMesh: 0
    subMeshCount: 0
  m_StaticBatchRoot: {fileID: 0}
  m_ProbeAnchor: {fileID: 0}
  m_LightProbeVolumeOverride: {fileID: 0}
  m_ScaleInLightmap: 1
  m_PreserveUVs: 0
  m_IgnoreNormalsForChartDetection: 0
  m_ImportantGI: 0
  m_StitchLightmapSeams: 0
  m_SelectedEditorRenderState: 0
  m_MinimumChartSize: 4
  m_AutoUVMaxDistance: 0.5
  m_AutoUVMaxAngle: 89
  m_LightmapParameters: {fileID: 0}
  m_SortingLayerID: 0
  m_SortingLayer: 0
  m_SortingOrder: 0
  m_ChunkSize: {x: 32, y: 32, z: 32}
  m_ChunkCullingBounds: {x: 0, y: 0, z: 0}
  m_MaxChunkCount: 16
  m_MaxFrameAge: 16
  m_SortOrder: 0
  m_Mode: 0
  m_DetectChunkCullingBounds: 0
  m_MaskInteraction: 0
--- !u!1 &9067548842027222016
GameObject:
  m_ObjectHideFlags: 0
  m_CorrespondingSourceObject: {fileID: 0}
  m_PrefabInstance: {fileID: 0}
  m_PrefabAsset: {fileID: 0}
  serializedVersion: 6
  m_Component:
  - component: {fileID: 963544362155369964}
  - component: {fileID: 5313229213973173602}
  m_Layer: 31
  m_Name: NewGrassPalette
  m_TagString: Untagged
  m_Icon: {fileID: 0}
  m_NavMeshLayer: 0
  m_StaticEditorFlags: 0
  m_IsActive: 1
--- !u!4 &963544362155369964
Transform:
  m_ObjectHideFlags: 0
  m_CorrespondingSourceObject: {fileID: 0}
  m_PrefabInstance: {fileID: 0}
  m_PrefabAsset: {fileID: 0}
  m_GameObject: {fileID: 9067548842027222016}
  m_LocalRotation: {x: 0, y: 0, z: 0, w: 1}
  m_LocalPosition: {x: 0, y: 0, z: 0}
  m_LocalScale: {x: 1, y: 1, z: 1}
  m_Children:
  - {fileID: 6000820155959660396}
  m_Father: {fileID: 0}
  m_RootOrder: 0
  m_LocalEulerAnglesHint: {x: 0, y: 0, z: 0}
--- !u!156049354 &5313229213973173602
Grid:
  m_ObjectHideFlags: 0
  m_CorrespondingSourceObject: {fileID: 0}
  m_PrefabInstance: {fileID: 0}
  m_PrefabAsset: {fileID: 0}
  m_GameObject: {fileID: 9067548842027222016}
  m_Enabled: 1
  m_CellSize: {x: 1, y: 1, z: 0}
  m_CellGap: {x: 0, y: 0, z: 0}
  m_CellLayout: 0
  m_CellSwizzle: 0
--- !u!114 &114668845192670786
MonoBehaviour:
  m_ObjectHideFlags: 0
  m_CorrespondingSourceObject: {fileID: 0}
  m_PrefabInstance: {fileID: 0}
  m_PrefabAsset: {fileID: 0}
  m_GameObject: {fileID: 0}
  m_Enabled: 1
  m_EditorHideFlags: 0
  m_Script: {fileID: 12395, guid: 0000000000000000e000000000000000, type: 0}
  m_Name: Palette Settings
  m_EditorClassIdentifier: 
  cellSizing: 0
