%YAML 1.1
%TAG !u! tag:unity3d.com,2011:
--- !u!1 &4359681305073453969
GameObject:
  m_ObjectHideFlags: 0
  m_CorrespondingSourceObject: {fileID: 0}
  m_PrefabInstance: {fileID: 0}
  m_PrefabAsset: {fileID: 0}
  serializedVersion: 6
  m_Component:
  - component: {fileID: 4251170064700665994}
  - component: {fileID: 5431399552182301667}
  m_Layer: 31
  m_Name: PastPlatformPalette
  m_TagString: Untagged
  m_Icon: {fileID: 0}
  m_NavMeshLayer: 0
  m_StaticEditorFlags: 0
  m_IsActive: 1
--- !u!4 &4251170064700665994
Transform:
  m_ObjectHideFlags: 0
  m_CorrespondingSourceObject: {fileID: 0}
  m_PrefabInstance: {fileID: 0}
  m_PrefabAsset: {fileID: 0}
  m_GameObject: {fileID: 4359681305073453969}
  m_LocalRotation: {x: 0, y: 0, z: 0, w: 1}
  m_LocalPosition: {x: 0, y: 0, z: 0}
  m_LocalScale: {x: 1, y: 1, z: 1}
  m_Children:
  - {fileID: 6451867958865336000}
  m_Father: {fileID: 0}
  m_RootOrder: 0
  m_LocalEulerAnglesHint: {x: 0, y: 0, z: 0}
--- !u!156049354 &5431399552182301667
Grid:
  m_ObjectHideFlags: 0
  m_CorrespondingSourceObject: {fileID: 0}
  m_PrefabInstance: {fileID: 0}
  m_PrefabAsset: {fileID: 0}
  m_GameObject: {fileID: 4359681305073453969}
  m_Enabled: 1
  m_CellSize: {x: 1, y: 1, z: 0}
  m_CellGap: {x: 0, y: 0, z: 0}
  m_CellLayout: 0
  m_CellSwizzle: 0
--- !u!1 &7976962237133468696
GameObject:
  m_ObjectHideFlags: 0
  m_CorrespondingSourceObject: {fileID: 0}
  m_PrefabInstance: {fileID: 0}
  m_PrefabAsset: {fileID: 0}
  serializedVersion: 6
  m_Component:
  - component: {fileID: 6451867958865336000}
  - component: {fileID: 5854726674853527456}
  - component: {fileID: 803051985014277812}
  m_Layer: 31
  m_Name: Layer1
  m_TagString: Untagged
  m_Icon: {fileID: 0}
  m_NavMeshLayer: 0
  m_StaticEditorFlags: 0
  m_IsActive: 1
--- !u!4 &6451867958865336000
Transform:
  m_ObjectHideFlags: 0
  m_CorrespondingSourceObject: {fileID: 0}
  m_PrefabInstance: {fileID: 0}
  m_PrefabAsset: {fileID: 0}
  m_GameObject: {fileID: 7976962237133468696}
  m_LocalRotation: {x: -0, y: -0, z: -0, w: 1}
  m_LocalPosition: {x: 0, y: 0, z: 0}
  m_LocalScale: {x: 1, y: 1, z: 1}
  m_Children: []
  m_Father: {fileID: 4251170064700665994}
  m_RootOrder: 0
  m_LocalEulerAnglesHint: {x: 0, y: 0, z: 0}
--- !u!1839735485 &5854726674853527456
Tilemap:
  m_ObjectHideFlags: 0
  m_CorrespondingSourceObject: {fileID: 0}
  m_PrefabInstance: {fileID: 0}
  m_PrefabAsset: {fileID: 0}
  m_GameObject: {fileID: 7976962237133468696}
  m_Enabled: 1
  m_Tiles:
  - first: {x: -3, y: -1, z: 0}
    second:
      m_TileIndex: 20
      m_TileSpriteIndex: 20
      m_TileMatrixIndex: 0
      m_TileColorIndex: 0
      m_ObjectToInstantiate: {fileID: 0}
      m_TileFlags: 1
      m_ColliderType: 1
  - first: {x: -2, y: -1, z: 0}
    second:
      m_TileIndex: 21
      m_TileSpriteIndex: 21
      m_TileMatrixIndex: 0
      m_TileColorIndex: 0
      m_ObjectToInstantiate: {fileID: 0}
      m_TileFlags: 1
      m_ColliderType: 1
  - first: {x: -1, y: -1, z: 0}
    second:
      m_TileIndex: 22
      m_TileSpriteIndex: 22
      m_TileMatrixIndex: 0
      m_TileColorIndex: 0
      m_ObjectToInstantiate: {fileID: 0}
      m_TileFlags: 1
      m_ColliderType: 1
  - first: {x: 0, y: -1, z: 0}
    second:
      m_TileIndex: 23
      m_TileSpriteIndex: 23
      m_TileMatrixIndex: 0
      m_TileColorIndex: 0
      m_ObjectToInstantiate: {fileID: 0}
      m_TileFlags: 1
      m_ColliderType: 1
  - first: {x: 1, y: -1, z: 0}
    second:
      m_TileIndex: 24
      m_TileSpriteIndex: 24
      m_TileMatrixIndex: 0
      m_TileColorIndex: 0
      m_ObjectToInstantiate: {fileID: 0}
      m_TileFlags: 1
      m_ColliderType: 1
  - first: {x: 2, y: -1, z: 0}
    second:
      m_TileIndex: 25
      m_TileSpriteIndex: 25
      m_TileMatrixIndex: 0
      m_TileColorIndex: 0
      m_ObjectToInstantiate: {fileID: 0}
      m_TileFlags: 1
      m_ColliderType: 1
  - first: {x: 3, y: -1, z: 0}
    second:
      m_TileIndex: 26
      m_TileSpriteIndex: 26
      m_TileMatrixIndex: 0
      m_TileColorIndex: 0
      m_ObjectToInstantiate: {fileID: 0}
      m_TileFlags: 1
      m_ColliderType: 1
  - first: {x: 4, y: -1, z: 0}
    second:
      m_TileIndex: 27
      m_TileSpriteIndex: 27
      m_TileMatrixIndex: 0
      m_TileColorIndex: 0
      m_ObjectToInstantiate: {fileID: 0}
      m_TileFlags: 1
      m_ColliderType: 1
  - first: {x: 5, y: -1, z: 0}
    second:
      m_TileIndex: 28
      m_TileSpriteIndex: 28
      m_TileMatrixIndex: 0
      m_TileColorIndex: 0
      m_ObjectToInstantiate: {fileID: 0}
      m_TileFlags: 1
      m_ColliderType: 1
  - first: {x: 6, y: -1, z: 0}
    second:
      m_TileIndex: 29
      m_TileSpriteIndex: 29
      m_TileMatrixIndex: 0
      m_TileColorIndex: 0
      m_ObjectToInstantiate: {fileID: 0}
      m_TileFlags: 1
      m_ColliderType: 1
  - first: {x: 7, y: -1, z: 0}
    second:
      m_TileIndex: 30
      m_TileSpriteIndex: 30
      m_TileMatrixIndex: 0
      m_TileColorIndex: 0
      m_ObjectToInstantiate: {fileID: 0}
      m_TileFlags: 1
      m_ColliderType: 1
  - first: {x: 8, y: -1, z: 0}
    second:
      m_TileIndex: 31
      m_TileSpriteIndex: 31
      m_TileMatrixIndex: 0
      m_TileColorIndex: 0
      m_ObjectToInstantiate: {fileID: 0}
      m_TileFlags: 1
      m_ColliderType: 1
  - first: {x: 9, y: -1, z: 0}
    second:
      m_TileIndex: 32
      m_TileSpriteIndex: 32
      m_TileMatrixIndex: 0
      m_TileColorIndex: 0
      m_ObjectToInstantiate: {fileID: 0}
      m_TileFlags: 1
      m_ColliderType: 1
  - first: {x: 10, y: -1, z: 0}
    second:
      m_TileIndex: 33
      m_TileSpriteIndex: 33
      m_TileMatrixIndex: 0
      m_TileColorIndex: 0
      m_ObjectToInstantiate: {fileID: 0}
      m_TileFlags: 1
      m_ColliderType: 1
  - first: {x: 11, y: -1, z: 0}
    second:
      m_TileIndex: 34
      m_TileSpriteIndex: 34
      m_TileMatrixIndex: 0
      m_TileColorIndex: 0
      m_ObjectToInstantiate: {fileID: 0}
      m_TileFlags: 1
      m_ColliderType: 1
  - first: {x: 12, y: -1, z: 0}
    second:
      m_TileIndex: 35
      m_TileSpriteIndex: 35
      m_TileMatrixIndex: 0
      m_TileColorIndex: 0
      m_ObjectToInstantiate: {fileID: 0}
      m_TileFlags: 1
      m_ColliderType: 1
  - first: {x: 13, y: -1, z: 0}
    second:
      m_TileIndex: 36
      m_TileSpriteIndex: 36
      m_TileMatrixIndex: 0
      m_TileColorIndex: 0
      m_ObjectToInstantiate: {fileID: 0}
      m_TileFlags: 1
      m_ColliderType: 1
  - first: {x: 14, y: -1, z: 0}
    second:
      m_TileIndex: 37
      m_TileSpriteIndex: 37
      m_TileMatrixIndex: 0
      m_TileColorIndex: 0
      m_ObjectToInstantiate: {fileID: 0}
      m_TileFlags: 1
      m_ColliderType: 1
  - first: {x: 16, y: -1, z: 0}
    second:
      m_TileIndex: 38
      m_TileSpriteIndex: 38
      m_TileMatrixIndex: 0
      m_TileColorIndex: 0
      m_ObjectToInstantiate: {fileID: 0}
      m_TileFlags: 1
      m_ColliderType: 1
  - first: {x: -3, y: 0, z: 0}
    second:
      m_TileIndex: 0
      m_TileSpriteIndex: 0
      m_TileMatrixIndex: 0
      m_TileColorIndex: 0
      m_ObjectToInstantiate: {fileID: 0}
      m_TileFlags: 1
      m_ColliderType: 1
  - first: {x: -2, y: 0, z: 0}
    second:
      m_TileIndex: 1
      m_TileSpriteIndex: 1
      m_TileMatrixIndex: 0
      m_TileColorIndex: 0
      m_ObjectToInstantiate: {fileID: 0}
      m_TileFlags: 1
      m_ColliderType: 1
  - first: {x: -1, y: 0, z: 0}
    second:
      m_TileIndex: 2
      m_TileSpriteIndex: 2
      m_TileMatrixIndex: 0
      m_TileColorIndex: 0
      m_ObjectToInstantiate: {fileID: 0}
      m_TileFlags: 1
      m_ColliderType: 1
  - first: {x: 0, y: 0, z: 0}
    second:
      m_TileIndex: 3
      m_TileSpriteIndex: 3
      m_TileMatrixIndex: 0
      m_TileColorIndex: 0
      m_ObjectToInstantiate: {fileID: 0}
      m_TileFlags: 1
      m_ColliderType: 1
  - first: {x: 1, y: 0, z: 0}
    second:
      m_TileIndex: 4
      m_TileSpriteIndex: 4
      m_TileMatrixIndex: 0
      m_TileColorIndex: 0
      m_ObjectToInstantiate: {fileID: 0}
      m_TileFlags: 1
      m_ColliderType: 1
  - first: {x: 2, y: 0, z: 0}
    second:
      m_TileIndex: 5
      m_TileSpriteIndex: 5
      m_TileMatrixIndex: 0
      m_TileColorIndex: 0
      m_ObjectToInstantiate: {fileID: 0}
      m_TileFlags: 1
      m_ColliderType: 1
  - first: {x: 3, y: 0, z: 0}
    second:
      m_TileIndex: 6
      m_TileSpriteIndex: 6
      m_TileMatrixIndex: 0
      m_TileColorIndex: 0
      m_ObjectToInstantiate: {fileID: 0}
      m_TileFlags: 1
      m_ColliderType: 1
  - first: {x: 4, y: 0, z: 0}
    second:
      m_TileIndex: 7
      m_TileSpriteIndex: 7
      m_TileMatrixIndex: 0
      m_TileColorIndex: 0
      m_ObjectToInstantiate: {fileID: 0}
      m_TileFlags: 1
      m_ColliderType: 1
  - first: {x: 5, y: 0, z: 0}
    second:
      m_TileIndex: 8
      m_TileSpriteIndex: 8
      m_TileMatrixIndex: 0
      m_TileColorIndex: 0
      m_ObjectToInstantiate: {fileID: 0}
      m_TileFlags: 1
      m_ColliderType: 1
  - first: {x: 6, y: 0, z: 0}
    second:
      m_TileIndex: 9
      m_TileSpriteIndex: 9
      m_TileMatrixIndex: 0
      m_TileColorIndex: 0
      m_ObjectToInstantiate: {fileID: 0}
      m_TileFlags: 1
      m_ColliderType: 1
  - first: {x: 7, y: 0, z: 0}
    second:
      m_TileIndex: 10
      m_TileSpriteIndex: 10
      m_TileMatrixIndex: 0
      m_TileColorIndex: 0
      m_ObjectToInstantiate: {fileID: 0}
      m_TileFlags: 1
      m_ColliderType: 1
  - first: {x: 8, y: 0, z: 0}
    second:
      m_TileIndex: 11
      m_TileSpriteIndex: 11
      m_TileMatrixIndex: 0
      m_TileColorIndex: 0
      m_ObjectToInstantiate: {fileID: 0}
      m_TileFlags: 1
      m_ColliderType: 1
  - first: {x: 9, y: 0, z: 0}
    second:
      m_TileIndex: 12
      m_TileSpriteIndex: 12
      m_TileMatrixIndex: 0
      m_TileColorIndex: 0
      m_ObjectToInstantiate: {fileID: 0}
      m_TileFlags: 1
      m_ColliderType: 1
  - first: {x: 10, y: 0, z: 0}
    second:
      m_TileIndex: 13
      m_TileSpriteIndex: 13
      m_TileMatrixIndex: 0
      m_TileColorIndex: 0
      m_ObjectToInstantiate: {fileID: 0}
      m_TileFlags: 1
      m_ColliderType: 1
  - first: {x: 11, y: 0, z: 0}
    second:
      m_TileIndex: 14
      m_TileSpriteIndex: 14
      m_TileMatrixIndex: 0
      m_TileColorIndex: 0
      m_ObjectToInstantiate: {fileID: 0}
      m_TileFlags: 1
      m_ColliderType: 1
  - first: {x: 12, y: 0, z: 0}
    second:
      m_TileIndex: 15
      m_TileSpriteIndex: 15
      m_TileMatrixIndex: 0
      m_TileColorIndex: 0
      m_ObjectToInstantiate: {fileID: 0}
      m_TileFlags: 1
      m_ColliderType: 1
  - first: {x: 13, y: 0, z: 0}
    second:
      m_TileIndex: 16
      m_TileSpriteIndex: 16
      m_TileMatrixIndex: 0
      m_TileColorIndex: 0
      m_ObjectToInstantiate: {fileID: 0}
      m_TileFlags: 1
      m_ColliderType: 1
  - first: {x: 14, y: 0, z: 0}
    second:
      m_TileIndex: 17
      m_TileSpriteIndex: 17
      m_TileMatrixIndex: 0
      m_TileColorIndex: 0
      m_ObjectToInstantiate: {fileID: 0}
      m_TileFlags: 1
      m_ColliderType: 1
  - first: {x: 15, y: 0, z: 0}
    second:
      m_TileIndex: 18
      m_TileSpriteIndex: 18
      m_TileMatrixIndex: 0
      m_TileColorIndex: 0
      m_ObjectToInstantiate: {fileID: 0}
      m_TileFlags: 1
      m_ColliderType: 1
  - first: {x: 16, y: 0, z: 0}
    second:
      m_TileIndex: 19
      m_TileSpriteIndex: 19
      m_TileMatrixIndex: 0
      m_TileColorIndex: 0
      m_ObjectToInstantiate: {fileID: 0}
      m_TileFlags: 1
      m_ColliderType: 1
  m_AnimatedTiles: {}
  m_TileAssetArray:
  - m_RefCount: 1
    m_Data: {fileID: 11400000, guid: 7453736f9c6d01342b8096d5822b47c8, type: 2}
  - m_RefCount: 1
    m_Data: {fileID: 11400000, guid: 5c237dadc7063f44b87a85dce4711856, type: 2}
  - m_RefCount: 1
    m_Data: {fileID: 11400000, guid: 7b7517b84866499418da31b84d280bf4, type: 2}
  - m_RefCount: 1
    m_Data: {fileID: 11400000, guid: 2e5216e90e84caf4bbedc128e640e001, type: 2}
  - m_RefCount: 1
    m_Data: {fileID: 11400000, guid: 5cbe0adeda736444ca8e82d571f4417e, type: 2}
  - m_RefCount: 1
    m_Data: {fileID: 11400000, guid: 19e49037ccb47e54493296b929c2dc39, type: 2}
  - m_RefCount: 1
    m_Data: {fileID: 11400000, guid: 44dd4e2e11552464baab12818d74ea0f, type: 2}
  - m_RefCount: 1
    m_Data: {fileID: 11400000, guid: 88373544be7ca644b80f5b0bd6f06789, type: 2}
  - m_RefCount: 1
    m_Data: {fileID: 11400000, guid: fd90d32fb15c11f489affa992a3ebfd4, type: 2}
  - m_RefCount: 1
    m_Data: {fileID: 11400000, guid: 7d94283b9eea95742957667bf6a2e95a, type: 2}
  - m_RefCount: 1
    m_Data: {fileID: 11400000, guid: 7b0cb16989fdf6c40b5459e53f8e7404, type: 2}
  - m_RefCount: 1
    m_Data: {fileID: 11400000, guid: 8d7e6ead4146f0f4bb0c998e61309161, type: 2}
  - m_RefCount: 1
    m_Data: {fileID: 11400000, guid: 1ff27075486f00b429d6f131a0292fa3, type: 2}
  - m_RefCount: 1
    m_Data: {fileID: 11400000, guid: 127989b5aa547284d8dbf599733070f6, type: 2}
  - m_RefCount: 1
    m_Data: {fileID: 11400000, guid: 44bc2e10f3a807044bea9c16db0c9c04, type: 2}
  - m_RefCount: 1
    m_Data: {fileID: 11400000, guid: ff42cf7fb3e2d804ab6c86b728241276, type: 2}
  - m_RefCount: 1
    m_Data: {fileID: 11400000, guid: 6a46af27e811b904a92528668a89d589, type: 2}
  - m_RefCount: 1
    m_Data: {fileID: 11400000, guid: 15f8ece2ce94a794486feafd4a3803cb, type: 2}
  - m_RefCount: 1
    m_Data: {fileID: 11400000, guid: a0a5d63fbba7cf449a7f052b0f443bcc, type: 2}
  - m_RefCount: 1
    m_Data: {fileID: 11400000, guid: b993bfa7e9b336944b9764799106b73f, type: 2}
  - m_RefCount: 1
    m_Data: {fileID: 11400000, guid: 34b9b2c592ec27f47b67cdacb777e497, type: 2}
  - m_RefCount: 1
    m_Data: {fileID: 11400000, guid: 39064b03738c6ed4d817aa9e9017e9fa, type: 2}
  - m_RefCount: 1
    m_Data: {fileID: 11400000, guid: ca964468869ccc44aba92df3725379cf, type: 2}
  - m_RefCount: 1
    m_Data: {fileID: 11400000, guid: 4326354a154dbb9428f7ef00dc293ab5, type: 2}
  - m_RefCount: 1
    m_Data: {fileID: 11400000, guid: 0d0290de5a798e44b8d3b0628f90b213, type: 2}
  - m_RefCount: 1
    m_Data: {fileID: 11400000, guid: 0beef8e2a9ea6d84a8a49f100d7a6731, type: 2}
  - m_RefCount: 1
    m_Data: {fileID: 11400000, guid: 8d19776d130901c4a9e036354cba8158, type: 2}
  - m_RefCount: 1
    m_Data: {fileID: 11400000, guid: 3ffaeb76bc9c48341ac7af07097da47f, type: 2}
  - m_RefCount: 1
    m_Data: {fileID: 11400000, guid: 7efcdfe462cfdc54686b622ededd04fe, type: 2}
  - m_RefCount: 1
    m_Data: {fileID: 11400000, guid: efb113ff69f752545aaa3a2169cc027e, type: 2}
  - m_RefCount: 1
    m_Data: {fileID: 11400000, guid: 51afe8d704f58814994293b8dfe72c5a, type: 2}
  - m_RefCount: 1
    m_Data: {fileID: 11400000, guid: 0ea928fe96db51d4e8160d9bae4714fb, type: 2}
  - m_RefCount: 1
    m_Data: {fileID: 11400000, guid: 1c7e418a3482a8c47a4b37163cbde266, type: 2}
  - m_RefCount: 1
    m_Data: {fileID: 11400000, guid: c8012708f070dc5479de7ff14df2dae0, type: 2}
  - m_RefCount: 1
    m_Data: {fileID: 11400000, guid: 8551066754ee3954bb59bd2e23131902, type: 2}
  - m_RefCount: 1
    m_Data: {fileID: 11400000, guid: e939874f5300f8f4a8d05e7703e437fe, type: 2}
  - m_RefCount: 1
    m_Data: {fileID: 11400000, guid: 31b148f0162461b4b8a8452b26591191, type: 2}
  - m_RefCount: 1
    m_Data: {fileID: 11400000, guid: fac76103454941f42a31a8b1a675361b, type: 2}
  - m_RefCount: 1
    m_Data: {fileID: 11400000, guid: c18d1bcebc095154bab3255a7bc69d5e, type: 2}
  m_TileSpriteArray:
  - m_RefCount: 1
    m_Data: {fileID: 21300000, guid: 8d07a9f517d78eb4596ec21d76103250, type: 3}
  - m_RefCount: 1
    m_Data: {fileID: 21300002, guid: 8d07a9f517d78eb4596ec21d76103250, type: 3}
  - m_RefCount: 1
    m_Data: {fileID: 21300004, guid: 8d07a9f517d78eb4596ec21d76103250, type: 3}
  - m_RefCount: 1
    m_Data: {fileID: 21300006, guid: 8d07a9f517d78eb4596ec21d76103250, type: 3}
  - m_RefCount: 1
    m_Data: {fileID: 21300008, guid: 8d07a9f517d78eb4596ec21d76103250, type: 3}
  - m_RefCount: 1
    m_Data: {fileID: 21300010, guid: 8d07a9f517d78eb4596ec21d76103250, type: 3}
  - m_RefCount: 1
    m_Data: {fileID: 21300012, guid: 8d07a9f517d78eb4596ec21d76103250, type: 3}
  - m_RefCount: 1
    m_Data: {fileID: 21300014, guid: 8d07a9f517d78eb4596ec21d76103250, type: 3}
  - m_RefCount: 1
    m_Data: {fileID: 21300016, guid: 8d07a9f517d78eb4596ec21d76103250, type: 3}
  - m_RefCount: 1
    m_Data: {fileID: 21300018, guid: 8d07a9f517d78eb4596ec21d76103250, type: 3}
  - m_RefCount: 1
    m_Data: {fileID: 21300020, guid: 8d07a9f517d78eb4596ec21d76103250, type: 3}
  - m_RefCount: 1
    m_Data: {fileID: 21300022, guid: 8d07a9f517d78eb4596ec21d76103250, type: 3}
  - m_RefCount: 1
    m_Data: {fileID: 21300024, guid: 8d07a9f517d78eb4596ec21d76103250, type: 3}
  - m_RefCount: 1
    m_Data: {fileID: 21300026, guid: 8d07a9f517d78eb4596ec21d76103250, type: 3}
  - m_RefCount: 1
    m_Data: {fileID: 21300028, guid: 8d07a9f517d78eb4596ec21d76103250, type: 3}
  - m_RefCount: 1
    m_Data: {fileID: 21300030, guid: 8d07a9f517d78eb4596ec21d76103250, type: 3}
  - m_RefCount: 1
    m_Data: {fileID: 21300032, guid: 8d07a9f517d78eb4596ec21d76103250, type: 3}
  - m_RefCount: 1
    m_Data: {fileID: 21300034, guid: 8d07a9f517d78eb4596ec21d76103250, type: 3}
  - m_RefCount: 1
    m_Data: {fileID: 21300036, guid: 8d07a9f517d78eb4596ec21d76103250, type: 3}
  - m_RefCount: 1
    m_Data: {fileID: 21300038, guid: 8d07a9f517d78eb4596ec21d76103250, type: 3}
  - m_RefCount: 1
    m_Data: {fileID: 21300040, guid: 8d07a9f517d78eb4596ec21d76103250, type: 3}
  - m_RefCount: 1
    m_Data: {fileID: 21300042, guid: 8d07a9f517d78eb4596ec21d76103250, type: 3}
  - m_RefCount: 1
    m_Data: {fileID: 21300044, guid: 8d07a9f517d78eb4596ec21d76103250, type: 3}
  - m_RefCount: 1
    m_Data: {fileID: 21300046, guid: 8d07a9f517d78eb4596ec21d76103250, type: 3}
  - m_RefCount: 1
    m_Data: {fileID: 21300048, guid: 8d07a9f517d78eb4596ec21d76103250, type: 3}
  - m_RefCount: 1
    m_Data: {fileID: 21300050, guid: 8d07a9f517d78eb4596ec21d76103250, type: 3}
  - m_RefCount: 1
    m_Data: {fileID: 21300052, guid: 8d07a9f517d78eb4596ec21d76103250, type: 3}
  - m_RefCount: 1
    m_Data: {fileID: 21300054, guid: 8d07a9f517d78eb4596ec21d76103250, type: 3}
  - m_RefCount: 1
    m_Data: {fileID: 21300056, guid: 8d07a9f517d78eb4596ec21d76103250, type: 3}
  - m_RefCount: 1
    m_Data: {fileID: 21300058, guid: 8d07a9f517d78eb4596ec21d76103250, type: 3}
  - m_RefCount: 1
    m_Data: {fileID: 21300060, guid: 8d07a9f517d78eb4596ec21d76103250, type: 3}
  - m_RefCount: 1
    m_Data: {fileID: 21300062, guid: 8d07a9f517d78eb4596ec21d76103250, type: 3}
  - m_RefCount: 1
    m_Data: {fileID: 21300064, guid: 8d07a9f517d78eb4596ec21d76103250, type: 3}
  - m_RefCount: 1
    m_Data: {fileID: 21300066, guid: 8d07a9f517d78eb4596ec21d76103250, type: 3}
  - m_RefCount: 1
    m_Data: {fileID: 21300068, guid: 8d07a9f517d78eb4596ec21d76103250, type: 3}
  - m_RefCount: 1
    m_Data: {fileID: 21300070, guid: 8d07a9f517d78eb4596ec21d76103250, type: 3}
  - m_RefCount: 1
    m_Data: {fileID: 21300072, guid: 8d07a9f517d78eb4596ec21d76103250, type: 3}
  - m_RefCount: 1
    m_Data: {fileID: 21300000, guid: 4b0e1db4015257141ada51446fa12bdf, type: 3}
  - m_RefCount: 1
    m_Data: {fileID: 21300076, guid: 8d07a9f517d78eb4596ec21d76103250, type: 3}
  m_TileMatrixArray:
  - m_RefCount: 39
    m_Data:
      e00: 1
      e01: 0
      e02: 0
      e03: 0
      e10: 0
      e11: 1
      e12: 0
      e13: 0
      e20: 0
      e21: 0
      e22: 1
      e23: 0
      e30: 0
      e31: 0
      e32: 0
      e33: 1
  m_TileColorArray:
  - m_RefCount: 39
    m_Data: {r: 1, g: 1, b: 1, a: 1}
  m_AnimationFrameRate: 1
  m_Color: {r: 1, g: 1, b: 1, a: 1}
  m_Origin: {x: -3, y: -1, z: 0}
  m_Size: {x: 20, y: 2, z: 1}
  m_TileAnchor: {x: 0.5, y: 0.5, z: 0}
  m_TileOrientation: 0
  m_TileOrientationMatrix:
    e00: 1
    e01: 0
    e02: 0
    e03: 0
    e10: 0
    e11: 1
    e12: 0
    e13: 0
    e20: 0
    e21: 0
    e22: 1
    e23: 0
    e30: 0
    e31: 0
    e32: 0
    e33: 1
--- !u!483693784 &803051985014277812
TilemapRenderer:
  m_ObjectHideFlags: 0
  m_CorrespondingSourceObject: {fileID: 0}
  m_PrefabInstance: {fileID: 0}
  m_PrefabAsset: {fileID: 0}
  m_GameObject: {fileID: 7976962237133468696}
  m_Enabled: 0
  m_CastShadows: 0
  m_ReceiveShadows: 0
  m_DynamicOccludee: 0
  m_MotionVectors: 1
  m_LightProbeUsage: 0
  m_ReflectionProbeUsage: 0
  m_RenderingLayerMask: 1
  m_RendererPriority: 0
  m_Materials:
  - {fileID: 10754, guid: 0000000000000000f000000000000000, type: 0}
  m_StaticBatchInfo:
    firstSubMesh: 0
    subMeshCount: 0
  m_StaticBatchRoot: {fileID: 0}
  m_ProbeAnchor: {fileID: 0}
  m_LightProbeVolumeOverride: {fileID: 0}
  m_ScaleInLightmap: 1
  m_PreserveUVs: 0
  m_IgnoreNormalsForChartDetection: 0
  m_ImportantGI: 0
  m_StitchLightmapSeams: 0
  m_SelectedEditorRenderState: 0
  m_MinimumChartSize: 4
  m_AutoUVMaxDistance: 0.5
  m_AutoUVMaxAngle: 89
  m_LightmapParameters: {fileID: 0}
  m_SortingLayerID: 0
  m_SortingLayer: 0
  m_SortingOrder: 0
  m_ChunkSize: {x: 32, y: 32, z: 32}
  m_ChunkCullingBounds: {x: 0, y: 0, z: 0}
  m_MaxChunkCount: 16
  m_MaxFrameAge: 16
  m_SortOrder: 0
  m_Mode: 0
  m_DetectChunkCullingBounds: 0
  m_MaskInteraction: 0
--- !u!114 &114532506247879730
MonoBehaviour:
  m_ObjectHideFlags: 0
  m_CorrespondingSourceObject: {fileID: 0}
  m_PrefabInstance: {fileID: 0}
  m_PrefabAsset: {fileID: 0}
  m_GameObject: {fileID: 0}
  m_Enabled: 1
  m_EditorHideFlags: 0
  m_Script: {fileID: 12395, guid: 0000000000000000e000000000000000, type: 0}
  m_Name: Palette Settings
  m_EditorClassIdentifier: 
  cellSizing: 0
