%YAML 1.1
%TAG !u! tag:unity3d.com,2011:
--- !u!1 &2591517396235780690
GameObject:
  m_ObjectHideFlags: 0
  m_CorrespondingSourceObject: {fileID: 0}
  m_PrefabInstance: {fileID: 0}
  m_PrefabAsset: {fileID: 0}
  serializedVersion: 6
  m_Component:
  - component: {fileID: 2219419231647428294}
  - component: {fileID: 3079078969243824789}
  m_Layer: 31
  m_Name: TestPlatformTiles
  m_TagString: Untagged
  m_Icon: {fileID: 0}
  m_NavMeshLayer: 0
  m_StaticEditorFlags: 0
  m_IsActive: 1
--- !u!4 &2219419231647428294
Transform:
  m_ObjectHideFlags: 0
  m_CorrespondingSourceObject: {fileID: 0}
  m_PrefabInstance: {fileID: 0}
  m_PrefabAsset: {fileID: 0}
  m_GameObject: {fileID: 2591517396235780690}
  m_LocalRotation: {x: 0, y: 0, z: 0, w: 1}
  m_LocalPosition: {x: 0, y: 0, z: 0}
  m_LocalScale: {x: 1, y: 1, z: 1}
  m_Children:
  - {fileID: 8002635648936867351}
  m_Father: {fileID: 0}
  m_RootOrder: 0
  m_LocalEulerAnglesHint: {x: 0, y: 0, z: 0}
--- !u!156049354 &3079078969243824789
Grid:
  m_ObjectHideFlags: 0
  m_CorrespondingSourceObject: {fileID: 0}
  m_PrefabInstance: {fileID: 0}
  m_PrefabAsset: {fileID: 0}
  m_GameObject: {fileID: 2591517396235780690}
  m_Enabled: 1
  m_CellSize: {x: 1, y: 1, z: 0}
  m_CellGap: {x: 0, y: 0, z: 0}
  m_CellLayout: 0
  m_CellSwizzle: 0
--- !u!1 &4369248719379762179
GameObject:
  m_ObjectHideFlags: 0
  m_CorrespondingSourceObject: {fileID: 0}
  m_PrefabInstance: {fileID: 0}
  m_PrefabAsset: {fileID: 0}
  serializedVersion: 6
  m_Component:
  - component: {fileID: 8002635648936867351}
  - component: {fileID: 4057068613313892214}
  - component: {fileID: 178839601380323645}
  m_Layer: 31
  m_Name: Layer1
  m_TagString: Untagged
  m_Icon: {fileID: 0}
  m_NavMeshLayer: 0
  m_StaticEditorFlags: 0
  m_IsActive: 1
--- !u!4 &8002635648936867351
Transform:
  m_ObjectHideFlags: 0
  m_CorrespondingSourceObject: {fileID: 0}
  m_PrefabInstance: {fileID: 0}
  m_PrefabAsset: {fileID: 0}
  m_GameObject: {fileID: 4369248719379762179}
  m_LocalRotation: {x: -0, y: -0, z: -0, w: 1}
  m_LocalPosition: {x: 0, y: 0, z: 0}
  m_LocalScale: {x: 1, y: 1, z: 1}
  m_Children: []
  m_Father: {fileID: 2219419231647428294}
  m_RootOrder: 0
  m_LocalEulerAnglesHint: {x: 0, y: 0, z: 0}
--- !u!1839735485 &4057068613313892214
Tilemap:
  m_ObjectHideFlags: 0
  m_CorrespondingSourceObject: {fileID: 0}
  m_PrefabInstance: {fileID: 0}
  m_PrefabAsset: {fileID: 0}
  m_GameObject: {fileID: 4369248719379762179}
  m_Enabled: 1
  m_Tiles:
  - first: {x: -1, y: -6, z: 0}
    second:
      m_TileIndex: 96
      m_TileSpriteIndex: 96
      m_TileMatrixIndex: 0
      m_TileColorIndex: 0
      m_ObjectToInstantiate: {fileID: 0}
      m_TileFlags: 1
      m_ColliderType: 1
  - first: {x: 0, y: -6, z: 0}
    second:
      m_TileIndex: 97
      m_TileSpriteIndex: 97
      m_TileMatrixIndex: 0
      m_TileColorIndex: 0
      m_ObjectToInstantiate: {fileID: 0}
      m_TileFlags: 1
      m_ColliderType: 1
  - first: {x: 1, y: -6, z: 0}
    second:
      m_TileIndex: 98
      m_TileSpriteIndex: 98
      m_TileMatrixIndex: 0
      m_TileColorIndex: 0
      m_ObjectToInstantiate: {fileID: 0}
      m_TileFlags: 1
      m_ColliderType: 1
  - first: {x: 2, y: -6, z: 0}
    second:
      m_TileIndex: 99
      m_TileSpriteIndex: 99
      m_TileMatrixIndex: 0
      m_TileColorIndex: 0
      m_ObjectToInstantiate: {fileID: 0}
      m_TileFlags: 1
      m_ColliderType: 1
  - first: {x: 0, y: -5, z: 0}
    second:
      m_TileIndex: 84
      m_TileSpriteIndex: 84
      m_TileMatrixIndex: 0
      m_TileColorIndex: 0
      m_ObjectToInstantiate: {fileID: 0}
      m_TileFlags: 1
      m_ColliderType: 1
  - first: {x: 1, y: -5, z: 0}
    second:
      m_TileIndex: 85
      m_TileSpriteIndex: 85
      m_TileMatrixIndex: 0
      m_TileColorIndex: 0
      m_ObjectToInstantiate: {fileID: 0}
      m_TileFlags: 1
      m_ColliderType: 1
  - first: {x: 4, y: -5, z: 0}
    second:
      m_TileIndex: 86
      m_TileSpriteIndex: 86
      m_TileMatrixIndex: 0
      m_TileColorIndex: 0
      m_ObjectToInstantiate: {fileID: 0}
      m_TileFlags: 1
      m_ColliderType: 1
  - first: {x: 5, y: -5, z: 0}
    second:
      m_TileIndex: 87
      m_TileSpriteIndex: 87
      m_TileMatrixIndex: 0
      m_TileColorIndex: 0
      m_ObjectToInstantiate: {fileID: 0}
      m_TileFlags: 1
      m_ColliderType: 1
  - first: {x: 6, y: -5, z: 0}
    second:
      m_TileIndex: 88
      m_TileSpriteIndex: 88
      m_TileMatrixIndex: 0
      m_TileColorIndex: 0
      m_ObjectToInstantiate: {fileID: 0}
      m_TileFlags: 1
      m_ColliderType: 1
  - first: {x: 7, y: -5, z: 0}
    second:
      m_TileIndex: 89
      m_TileSpriteIndex: 89
      m_TileMatrixIndex: 0
      m_TileColorIndex: 0
      m_ObjectToInstantiate: {fileID: 0}
      m_TileFlags: 1
      m_ColliderType: 1
  - first: {x: 8, y: -5, z: 0}
    second:
      m_TileIndex: 90
      m_TileSpriteIndex: 90
      m_TileMatrixIndex: 0
      m_TileColorIndex: 0
      m_ObjectToInstantiate: {fileID: 0}
      m_TileFlags: 1
      m_ColliderType: 1
  - first: {x: 9, y: -5, z: 0}
    second:
      m_TileIndex: 91
      m_TileSpriteIndex: 91
      m_TileMatrixIndex: 0
      m_TileColorIndex: 0
      m_ObjectToInstantiate: {fileID: 0}
      m_TileFlags: 1
      m_ColliderType: 1
  - first: {x: 10, y: -5, z: 0}
    second:
      m_TileIndex: 92
      m_TileSpriteIndex: 92
      m_TileMatrixIndex: 0
      m_TileColorIndex: 0
      m_ObjectToInstantiate: {fileID: 0}
      m_TileFlags: 1
      m_ColliderType: 1
  - first: {x: 11, y: -5, z: 0}
    second:
      m_TileIndex: 93
      m_TileSpriteIndex: 93
      m_TileMatrixIndex: 0
      m_TileColorIndex: 0
      m_ObjectToInstantiate: {fileID: 0}
      m_TileFlags: 1
      m_ColliderType: 1
  - first: {x: 12, y: -5, z: 0}
    second:
      m_TileIndex: 94
      m_TileSpriteIndex: 94
      m_TileMatrixIndex: 0
      m_TileColorIndex: 0
      m_ObjectToInstantiate: {fileID: 0}
      m_TileFlags: 1
      m_ColliderType: 1
  - first: {x: 13, y: -5, z: 0}
    second:
      m_TileIndex: 95
      m_TileSpriteIndex: 95
      m_TileMatrixIndex: 0
      m_TileColorIndex: 0
      m_ObjectToInstantiate: {fileID: 0}
      m_TileFlags: 1
      m_ColliderType: 1
  - first: {x: 0, y: -4, z: 0}
    second:
      m_TileIndex: 72
      m_TileSpriteIndex: 72
      m_TileMatrixIndex: 0
      m_TileColorIndex: 0
      m_ObjectToInstantiate: {fileID: 0}
      m_TileFlags: 1
      m_ColliderType: 1
  - first: {x: 1, y: -4, z: 0}
    second:
      m_TileIndex: 73
      m_TileSpriteIndex: 73
      m_TileMatrixIndex: 0
      m_TileColorIndex: 0
      m_ObjectToInstantiate: {fileID: 0}
      m_TileFlags: 1
      m_ColliderType: 1
  - first: {x: 4, y: -4, z: 0}
    second:
      m_TileIndex: 74
      m_TileSpriteIndex: 74
      m_TileMatrixIndex: 0
      m_TileColorIndex: 0
      m_ObjectToInstantiate: {fileID: 0}
      m_TileFlags: 1
      m_ColliderType: 1
  - first: {x: 5, y: -4, z: 0}
    second:
      m_TileIndex: 75
      m_TileSpriteIndex: 75
      m_TileMatrixIndex: 0
      m_TileColorIndex: 0
      m_ObjectToInstantiate: {fileID: 0}
      m_TileFlags: 1
      m_ColliderType: 1
  - first: {x: 6, y: -4, z: 0}
    second:
      m_TileIndex: 76
      m_TileSpriteIndex: 76
      m_TileMatrixIndex: 0
      m_TileColorIndex: 0
      m_ObjectToInstantiate: {fileID: 0}
      m_TileFlags: 1
      m_ColliderType: 1
  - first: {x: 7, y: -4, z: 0}
    second:
      m_TileIndex: 77
      m_TileSpriteIndex: 77
      m_TileMatrixIndex: 0
      m_TileColorIndex: 0
      m_ObjectToInstantiate: {fileID: 0}
      m_TileFlags: 1
      m_ColliderType: 1
  - first: {x: 8, y: -4, z: 0}
    second:
      m_TileIndex: 78
      m_TileSpriteIndex: 78
      m_TileMatrixIndex: 0
      m_TileColorIndex: 0
      m_ObjectToInstantiate: {fileID: 0}
      m_TileFlags: 1
      m_ColliderType: 1
  - first: {x: 9, y: -4, z: 0}
    second:
      m_TileIndex: 79
      m_TileSpriteIndex: 79
      m_TileMatrixIndex: 0
      m_TileColorIndex: 0
      m_ObjectToInstantiate: {fileID: 0}
      m_TileFlags: 1
      m_ColliderType: 1
  - first: {x: 10, y: -4, z: 0}
    second:
      m_TileIndex: 80
      m_TileSpriteIndex: 80
      m_TileMatrixIndex: 0
      m_TileColorIndex: 0
      m_ObjectToInstantiate: {fileID: 0}
      m_TileFlags: 1
      m_ColliderType: 1
  - first: {x: 11, y: -4, z: 0}
    second:
      m_TileIndex: 81
      m_TileSpriteIndex: 81
      m_TileMatrixIndex: 0
      m_TileColorIndex: 0
      m_ObjectToInstantiate: {fileID: 0}
      m_TileFlags: 1
      m_ColliderType: 1
  - first: {x: 12, y: -4, z: 0}
    second:
      m_TileIndex: 82
      m_TileSpriteIndex: 82
      m_TileMatrixIndex: 0
      m_TileColorIndex: 0
      m_ObjectToInstantiate: {fileID: 0}
      m_TileFlags: 1
      m_ColliderType: 1
  - first: {x: 13, y: -4, z: 0}
    second:
      m_TileIndex: 83
      m_TileSpriteIndex: 83
      m_TileMatrixIndex: 0
      m_TileColorIndex: 0
      m_ObjectToInstantiate: {fileID: 0}
      m_TileFlags: 1
      m_ColliderType: 1
  - first: {x: 0, y: -3, z: 0}
    second:
      m_TileIndex: 59
      m_TileSpriteIndex: 59
      m_TileMatrixIndex: 0
      m_TileColorIndex: 0
      m_ObjectToInstantiate: {fileID: 0}
      m_TileFlags: 1
      m_ColliderType: 1
  - first: {x: 1, y: -3, z: 0}
    second:
      m_TileIndex: 60
      m_TileSpriteIndex: 60
      m_TileMatrixIndex: 0
      m_TileColorIndex: 0
      m_ObjectToInstantiate: {fileID: 0}
      m_TileFlags: 1
      m_ColliderType: 1
  - first: {x: 2, y: -3, z: 0}
    second:
      m_TileIndex: 61
      m_TileSpriteIndex: 61
      m_TileMatrixIndex: 0
      m_TileColorIndex: 0
      m_ObjectToInstantiate: {fileID: 0}
      m_TileFlags: 1
      m_ColliderType: 1
  - first: {x: 4, y: -3, z: 0}
    second:
      m_TileIndex: 62
      m_TileSpriteIndex: 62
      m_TileMatrixIndex: 0
      m_TileColorIndex: 0
      m_ObjectToInstantiate: {fileID: 0}
      m_TileFlags: 1
      m_ColliderType: 1
  - first: {x: 5, y: -3, z: 0}
    second:
      m_TileIndex: 63
      m_TileSpriteIndex: 63
      m_TileMatrixIndex: 0
      m_TileColorIndex: 0
      m_ObjectToInstantiate: {fileID: 0}
      m_TileFlags: 1
      m_ColliderType: 1
  - first: {x: 6, y: -3, z: 0}
    second:
      m_TileIndex: 64
      m_TileSpriteIndex: 64
      m_TileMatrixIndex: 0
      m_TileColorIndex: 0
      m_ObjectToInstantiate: {fileID: 0}
      m_TileFlags: 1
      m_ColliderType: 1
  - first: {x: 7, y: -3, z: 0}
    second:
      m_TileIndex: 65
      m_TileSpriteIndex: 65
      m_TileMatrixIndex: 0
      m_TileColorIndex: 0
      m_ObjectToInstantiate: {fileID: 0}
      m_TileFlags: 1
      m_ColliderType: 1
  - first: {x: 8, y: -3, z: 0}
    second:
      m_TileIndex: 66
      m_TileSpriteIndex: 66
      m_TileMatrixIndex: 0
      m_TileColorIndex: 0
      m_ObjectToInstantiate: {fileID: 0}
      m_TileFlags: 1
      m_ColliderType: 1
  - first: {x: 9, y: -3, z: 0}
    second:
      m_TileIndex: 67
      m_TileSpriteIndex: 67
      m_TileMatrixIndex: 0
      m_TileColorIndex: 0
      m_ObjectToInstantiate: {fileID: 0}
      m_TileFlags: 1
      m_ColliderType: 1
  - first: {x: 10, y: -3, z: 0}
    second:
      m_TileIndex: 68
      m_TileSpriteIndex: 68
      m_TileMatrixIndex: 0
      m_TileColorIndex: 0
      m_ObjectToInstantiate: {fileID: 0}
      m_TileFlags: 1
      m_ColliderType: 1
  - first: {x: 11, y: -3, z: 0}
    second:
      m_TileIndex: 69
      m_TileSpriteIndex: 69
      m_TileMatrixIndex: 0
      m_TileColorIndex: 0
      m_ObjectToInstantiate: {fileID: 0}
      m_TileFlags: 1
      m_ColliderType: 1
  - first: {x: 12, y: -3, z: 0}
    second:
      m_TileIndex: 70
      m_TileSpriteIndex: 70
      m_TileMatrixIndex: 0
      m_TileColorIndex: 0
      m_ObjectToInstantiate: {fileID: 0}
      m_TileFlags: 1
      m_ColliderType: 1
  - first: {x: 13, y: -3, z: 0}
    second:
      m_TileIndex: 71
      m_TileSpriteIndex: 71
      m_TileMatrixIndex: 0
      m_TileColorIndex: 0
      m_ObjectToInstantiate: {fileID: 0}
      m_TileFlags: 1
      m_ColliderType: 1
  - first: {x: 0, y: -2, z: 0}
    second:
      m_TileIndex: 46
      m_TileSpriteIndex: 46
      m_TileMatrixIndex: 0
      m_TileColorIndex: 0
      m_ObjectToInstantiate: {fileID: 0}
      m_TileFlags: 1
      m_ColliderType: 1
  - first: {x: 1, y: -2, z: 0}
    second:
      m_TileIndex: 47
      m_TileSpriteIndex: 47
      m_TileMatrixIndex: 0
      m_TileColorIndex: 0
      m_ObjectToInstantiate: {fileID: 0}
      m_TileFlags: 1
      m_ColliderType: 1
  - first: {x: 2, y: -2, z: 0}
    second:
      m_TileIndex: 48
      m_TileSpriteIndex: 48
      m_TileMatrixIndex: 0
      m_TileColorIndex: 0
      m_ObjectToInstantiate: {fileID: 0}
      m_TileFlags: 1
      m_ColliderType: 1
  - first: {x: 4, y: -2, z: 0}
    second:
      m_TileIndex: 49
      m_TileSpriteIndex: 49
      m_TileMatrixIndex: 0
      m_TileColorIndex: 0
      m_ObjectToInstantiate: {fileID: 0}
      m_TileFlags: 1
      m_ColliderType: 1
  - first: {x: 5, y: -2, z: 0}
    second:
      m_TileIndex: 50
      m_TileSpriteIndex: 50
      m_TileMatrixIndex: 0
      m_TileColorIndex: 0
      m_ObjectToInstantiate: {fileID: 0}
      m_TileFlags: 1
      m_ColliderType: 1
  - first: {x: 6, y: -2, z: 0}
    second:
      m_TileIndex: 51
      m_TileSpriteIndex: 51
      m_TileMatrixIndex: 0
      m_TileColorIndex: 0
      m_ObjectToInstantiate: {fileID: 0}
      m_TileFlags: 1
      m_ColliderType: 1
  - first: {x: 7, y: -2, z: 0}
    second:
      m_TileIndex: 52
      m_TileSpriteIndex: 52
      m_TileMatrixIndex: 0
      m_TileColorIndex: 0
      m_ObjectToInstantiate: {fileID: 0}
      m_TileFlags: 1
      m_ColliderType: 1
  - first: {x: 8, y: -2, z: 0}
    second:
      m_TileIndex: 53
      m_TileSpriteIndex: 53
      m_TileMatrixIndex: 0
      m_TileColorIndex: 0
      m_ObjectToInstantiate: {fileID: 0}
      m_TileFlags: 1
      m_ColliderType: 1
  - first: {x: 9, y: -2, z: 0}
    second:
      m_TileIndex: 54
      m_TileSpriteIndex: 54
      m_TileMatrixIndex: 0
      m_TileColorIndex: 0
      m_ObjectToInstantiate: {fileID: 0}
      m_TileFlags: 1
      m_ColliderType: 1
  - first: {x: 10, y: -2, z: 0}
    second:
      m_TileIndex: 55
      m_TileSpriteIndex: 55
      m_TileMatrixIndex: 0
      m_TileColorIndex: 0
      m_ObjectToInstantiate: {fileID: 0}
      m_TileFlags: 1
      m_ColliderType: 1
  - first: {x: 11, y: -2, z: 0}
    second:
      m_TileIndex: 56
      m_TileSpriteIndex: 56
      m_TileMatrixIndex: 0
      m_TileColorIndex: 0
      m_ObjectToInstantiate: {fileID: 0}
      m_TileFlags: 1
      m_ColliderType: 1
  - first: {x: 12, y: -2, z: 0}
    second:
      m_TileIndex: 57
      m_TileSpriteIndex: 57
      m_TileMatrixIndex: 0
      m_TileColorIndex: 0
      m_ObjectToInstantiate: {fileID: 0}
      m_TileFlags: 1
      m_ColliderType: 1
  - first: {x: 13, y: -2, z: 0}
    second:
      m_TileIndex: 58
      m_TileSpriteIndex: 58
      m_TileMatrixIndex: 0
      m_TileColorIndex: 0
      m_ObjectToInstantiate: {fileID: 0}
      m_TileFlags: 1
      m_ColliderType: 1
  - first: {x: -1, y: -1, z: 0}
    second:
      m_TileIndex: 33
      m_TileSpriteIndex: 33
      m_TileMatrixIndex: 0
      m_TileColorIndex: 0
      m_ObjectToInstantiate: {fileID: 0}
      m_TileFlags: 1
      m_ColliderType: 1
  - first: {x: 0, y: -1, z: 0}
    second:
      m_TileIndex: 34
      m_TileSpriteIndex: 34
      m_TileMatrixIndex: 0
      m_TileColorIndex: 0
      m_ObjectToInstantiate: {fileID: 0}
      m_TileFlags: 1
      m_ColliderType: 1
  - first: {x: 1, y: -1, z: 0}
    second:
      m_TileIndex: 35
      m_TileSpriteIndex: 35
      m_TileMatrixIndex: 0
      m_TileColorIndex: 0
      m_ObjectToInstantiate: {fileID: 0}
      m_TileFlags: 1
      m_ColliderType: 1
  - first: {x: 4, y: -1, z: 0}
    second:
      m_TileIndex: 36
      m_TileSpriteIndex: 36
      m_TileMatrixIndex: 0
      m_TileColorIndex: 0
      m_ObjectToInstantiate: {fileID: 0}
      m_TileFlags: 1
      m_ColliderType: 1
  - first: {x: 5, y: -1, z: 0}
    second:
      m_TileIndex: 37
      m_TileSpriteIndex: 37
      m_TileMatrixIndex: 0
      m_TileColorIndex: 0
      m_ObjectToInstantiate: {fileID: 0}
      m_TileFlags: 1
      m_ColliderType: 1
  - first: {x: 6, y: -1, z: 0}
    second:
      m_TileIndex: 38
      m_TileSpriteIndex: 38
      m_TileMatrixIndex: 0
      m_TileColorIndex: 0
      m_ObjectToInstantiate: {fileID: 0}
      m_TileFlags: 1
      m_ColliderType: 1
  - first: {x: 7, y: -1, z: 0}
    second:
      m_TileIndex: 39
      m_TileSpriteIndex: 39
      m_TileMatrixIndex: 0
      m_TileColorIndex: 0
      m_ObjectToInstantiate: {fileID: 0}
      m_TileFlags: 1
      m_ColliderType: 1
  - first: {x: 8, y: -1, z: 0}
    second:
      m_TileIndex: 40
      m_TileSpriteIndex: 40
      m_TileMatrixIndex: 0
      m_TileColorIndex: 0
      m_ObjectToInstantiate: {fileID: 0}
      m_TileFlags: 1
      m_ColliderType: 1
  - first: {x: 9, y: -1, z: 0}
    second:
      m_TileIndex: 41
      m_TileSpriteIndex: 41
      m_TileMatrixIndex: 0
      m_TileColorIndex: 0
      m_ObjectToInstantiate: {fileID: 0}
      m_TileFlags: 1
      m_ColliderType: 1
  - first: {x: 10, y: -1, z: 0}
    second:
      m_TileIndex: 42
      m_TileSpriteIndex: 42
      m_TileMatrixIndex: 0
      m_TileColorIndex: 0
      m_ObjectToInstantiate: {fileID: 0}
      m_TileFlags: 1
      m_ColliderType: 1
  - first: {x: 11, y: -1, z: 0}
    second:
      m_TileIndex: 43
      m_TileSpriteIndex: 43
      m_TileMatrixIndex: 0
      m_TileColorIndex: 0
      m_ObjectToInstantiate: {fileID: 0}
      m_TileFlags: 1
      m_ColliderType: 1
  - first: {x: 12, y: -1, z: 0}
    second:
      m_TileIndex: 44
      m_TileSpriteIndex: 44
      m_TileMatrixIndex: 0
      m_TileColorIndex: 0
      m_ObjectToInstantiate: {fileID: 0}
      m_TileFlags: 1
      m_ColliderType: 1
  - first: {x: 13, y: -1, z: 0}
    second:
      m_TileIndex: 45
      m_TileSpriteIndex: 45
      m_TileMatrixIndex: 0
      m_TileColorIndex: 0
      m_ObjectToInstantiate: {fileID: 0}
      m_TileFlags: 1
      m_ColliderType: 1
  - first: {x: -3, y: 0, z: 0}
    second:
      m_TileIndex: 17
      m_TileSpriteIndex: 17
      m_TileMatrixIndex: 0
      m_TileColorIndex: 0
      m_ObjectToInstantiate: {fileID: 0}
      m_TileFlags: 1
      m_ColliderType: 1
  - first: {x: -2, y: 0, z: 0}
    second:
      m_TileIndex: 18
      m_TileSpriteIndex: 18
      m_TileMatrixIndex: 0
      m_TileColorIndex: 0
      m_ObjectToInstantiate: {fileID: 0}
      m_TileFlags: 1
      m_ColliderType: 1
  - first: {x: -1, y: 0, z: 0}
    second:
      m_TileIndex: 19
      m_TileSpriteIndex: 19
      m_TileMatrixIndex: 0
      m_TileColorIndex: 0
      m_ObjectToInstantiate: {fileID: 0}
      m_TileFlags: 1
      m_ColliderType: 1
  - first: {x: 0, y: 0, z: 0}
    second:
      m_TileIndex: 20
      m_TileSpriteIndex: 20
      m_TileMatrixIndex: 0
      m_TileColorIndex: 0
      m_ObjectToInstantiate: {fileID: 0}
      m_TileFlags: 1
      m_ColliderType: 1
  - first: {x: 1, y: 0, z: 0}
    second:
      m_TileIndex: 21
      m_TileSpriteIndex: 21
      m_TileMatrixIndex: 0
      m_TileColorIndex: 0
      m_ObjectToInstantiate: {fileID: 0}
      m_TileFlags: 1
      m_ColliderType: 1
  - first: {x: 2, y: 0, z: 0}
    second:
      m_TileIndex: 22
      m_TileSpriteIndex: 22
      m_TileMatrixIndex: 0
      m_TileColorIndex: 0
      m_ObjectToInstantiate: {fileID: 0}
      m_TileFlags: 1
      m_ColliderType: 1
  - first: {x: 4, y: 0, z: 0}
    second:
      m_TileIndex: 23
      m_TileSpriteIndex: 23
      m_TileMatrixIndex: 0
      m_TileColorIndex: 0
      m_ObjectToInstantiate: {fileID: 0}
      m_TileFlags: 1
      m_ColliderType: 1
  - first: {x: 5, y: 0, z: 0}
    second:
      m_TileIndex: 24
      m_TileSpriteIndex: 24
      m_TileMatrixIndex: 0
      m_TileColorIndex: 0
      m_ObjectToInstantiate: {fileID: 0}
      m_TileFlags: 1
      m_ColliderType: 1
  - first: {x: 6, y: 0, z: 0}
    second:
      m_TileIndex: 25
      m_TileSpriteIndex: 25
      m_TileMatrixIndex: 0
      m_TileColorIndex: 0
      m_ObjectToInstantiate: {fileID: 0}
      m_TileFlags: 1
      m_ColliderType: 1
  - first: {x: 7, y: 0, z: 0}
    second:
      m_TileIndex: 26
      m_TileSpriteIndex: 26
      m_TileMatrixIndex: 0
      m_TileColorIndex: 0
      m_ObjectToInstantiate: {fileID: 0}
      m_TileFlags: 1
      m_ColliderType: 1
  - first: {x: 8, y: 0, z: 0}
    second:
      m_TileIndex: 27
      m_TileSpriteIndex: 27
      m_TileMatrixIndex: 0
      m_TileColorIndex: 0
      m_ObjectToInstantiate: {fileID: 0}
      m_TileFlags: 1
      m_ColliderType: 1
  - first: {x: 9, y: 0, z: 0}
    second:
      m_TileIndex: 28
      m_TileSpriteIndex: 28
      m_TileMatrixIndex: 0
      m_TileColorIndex: 0
      m_ObjectToInstantiate: {fileID: 0}
      m_TileFlags: 1
      m_ColliderType: 1
  - first: {x: 10, y: 0, z: 0}
    second:
      m_TileIndex: 29
      m_TileSpriteIndex: 29
      m_TileMatrixIndex: 0
      m_TileColorIndex: 0
      m_ObjectToInstantiate: {fileID: 0}
      m_TileFlags: 1
      m_ColliderType: 1
  - first: {x: 11, y: 0, z: 0}
    second:
      m_TileIndex: 30
      m_TileSpriteIndex: 30
      m_TileMatrixIndex: 0
      m_TileColorIndex: 0
      m_ObjectToInstantiate: {fileID: 0}
      m_TileFlags: 1
      m_ColliderType: 1
  - first: {x: 12, y: 0, z: 0}
    second:
      m_TileIndex: 31
      m_TileSpriteIndex: 31
      m_TileMatrixIndex: 0
      m_TileColorIndex: 0
      m_ObjectToInstantiate: {fileID: 0}
      m_TileFlags: 1
      m_ColliderType: 1
  - first: {x: 13, y: 0, z: 0}
    second:
      m_TileIndex: 32
      m_TileSpriteIndex: 32
      m_TileMatrixIndex: 0
      m_TileColorIndex: 0
      m_ObjectToInstantiate: {fileID: 0}
      m_TileFlags: 1
      m_ColliderType: 1
  - first: {x: -3, y: 1, z: 0}
    second:
      m_TileIndex: 0
      m_TileSpriteIndex: 0
      m_TileMatrixIndex: 0
      m_TileColorIndex: 0
      m_ObjectToInstantiate: {fileID: 0}
      m_TileFlags: 1
      m_ColliderType: 1
  - first: {x: -2, y: 1, z: 0}
    second:
      m_TileIndex: 1
      m_TileSpriteIndex: 1
      m_TileMatrixIndex: 0
      m_TileColorIndex: 0
      m_ObjectToInstantiate: {fileID: 0}
      m_TileFlags: 1
      m_ColliderType: 1
  - first: {x: -1, y: 1, z: 0}
    second:
      m_TileIndex: 2
      m_TileSpriteIndex: 2
      m_TileMatrixIndex: 0
      m_TileColorIndex: 0
      m_ObjectToInstantiate: {fileID: 0}
      m_TileFlags: 1
      m_ColliderType: 1
  - first: {x: 0, y: 1, z: 0}
    second:
      m_TileIndex: 3
      m_TileSpriteIndex: 3
      m_TileMatrixIndex: 0
      m_TileColorIndex: 0
      m_ObjectToInstantiate: {fileID: 0}
      m_TileFlags: 1
      m_ColliderType: 1
  - first: {x: 1, y: 1, z: 0}
    second:
      m_TileIndex: 4
      m_TileSpriteIndex: 4
      m_TileMatrixIndex: 0
      m_TileColorIndex: 0
      m_ObjectToInstantiate: {fileID: 0}
      m_TileFlags: 1
      m_ColliderType: 1
  - first: {x: 2, y: 1, z: 0}
    second:
      m_TileIndex: 5
      m_TileSpriteIndex: 5
      m_TileMatrixIndex: 0
      m_TileColorIndex: 0
      m_ObjectToInstantiate: {fileID: 0}
      m_TileFlags: 1
      m_ColliderType: 1
  - first: {x: 3, y: 1, z: 0}
    second:
      m_TileIndex: 6
      m_TileSpriteIndex: 6
      m_TileMatrixIndex: 0
      m_TileColorIndex: 0
      m_ObjectToInstantiate: {fileID: 0}
      m_TileFlags: 1
      m_ColliderType: 1
  - first: {x: 4, y: 1, z: 0}
    second:
      m_TileIndex: 7
      m_TileSpriteIndex: 7
      m_TileMatrixIndex: 0
      m_TileColorIndex: 0
      m_ObjectToInstantiate: {fileID: 0}
      m_TileFlags: 1
      m_ColliderType: 1
  - first: {x: 5, y: 1, z: 0}
    second:
      m_TileIndex: 8
      m_TileSpriteIndex: 8
      m_TileMatrixIndex: 0
      m_TileColorIndex: 0
      m_ObjectToInstantiate: {fileID: 0}
      m_TileFlags: 1
      m_ColliderType: 1
  - first: {x: 6, y: 1, z: 0}
    second:
      m_TileIndex: 9
      m_TileSpriteIndex: 9
      m_TileMatrixIndex: 0
      m_TileColorIndex: 0
      m_ObjectToInstantiate: {fileID: 0}
      m_TileFlags: 1
      m_ColliderType: 1
  - first: {x: 7, y: 1, z: 0}
    second:
      m_TileIndex: 10
      m_TileSpriteIndex: 10
      m_TileMatrixIndex: 0
      m_TileColorIndex: 0
      m_ObjectToInstantiate: {fileID: 0}
      m_TileFlags: 1
      m_ColliderType: 1
  - first: {x: 8, y: 1, z: 0}
    second:
      m_TileIndex: 11
      m_TileSpriteIndex: 11
      m_TileMatrixIndex: 0
      m_TileColorIndex: 0
      m_ObjectToInstantiate: {fileID: 0}
      m_TileFlags: 1
      m_ColliderType: 1
  - first: {x: 9, y: 1, z: 0}
    second:
      m_TileIndex: 12
      m_TileSpriteIndex: 12
      m_TileMatrixIndex: 0
      m_TileColorIndex: 0
      m_ObjectToInstantiate: {fileID: 0}
      m_TileFlags: 1
      m_ColliderType: 1
  - first: {x: 10, y: 1, z: 0}
    second:
      m_TileIndex: 13
      m_TileSpriteIndex: 13
      m_TileMatrixIndex: 0
      m_TileColorIndex: 0
      m_ObjectToInstantiate: {fileID: 0}
      m_TileFlags: 1
      m_ColliderType: 1
  - first: {x: 11, y: 1, z: 0}
    second:
      m_TileIndex: 14
      m_TileSpriteIndex: 14
      m_TileMatrixIndex: 0
      m_TileColorIndex: 0
      m_ObjectToInstantiate: {fileID: 0}
      m_TileFlags: 1
      m_ColliderType: 1
  - first: {x: 12, y: 1, z: 0}
    second:
      m_TileIndex: 15
      m_TileSpriteIndex: 15
      m_TileMatrixIndex: 0
      m_TileColorIndex: 0
      m_ObjectToInstantiate: {fileID: 0}
      m_TileFlags: 1
      m_ColliderType: 1
  - first: {x: 13, y: 1, z: 0}
    second:
      m_TileIndex: 16
      m_TileSpriteIndex: 16
      m_TileMatrixIndex: 0
      m_TileColorIndex: 0
      m_ObjectToInstantiate: {fileID: 0}
      m_TileFlags: 1
      m_ColliderType: 1
  m_AnimatedTiles: {}
  m_TileAssetArray:
  - m_RefCount: 1
    m_Data: {fileID: 11400000, guid: 8642910ddb4bf0a459c44cd549394294, type: 2}
  - m_RefCount: 1
    m_Data: {fileID: 11400000, guid: 8c7b1599d36e9f74f88bf99b69cfdfe5, type: 2}
  - m_RefCount: 1
    m_Data: {fileID: 11400000, guid: 3db41424d9ad3d148941d1d5fd19019d, type: 2}
  - m_RefCount: 1
    m_Data: {fileID: 11400000, guid: b78f7bc2cd36cae499dcf7823abab00d, type: 2}
  - m_RefCount: 1
    m_Data: {fileID: 11400000, guid: 57b7e171fee24fe42863e58be8427322, type: 2}
  - m_RefCount: 1
    m_Data: {fileID: 11400000, guid: 39fd49b308354294bb0557f97cac29cd, type: 2}
  - m_RefCount: 1
    m_Data: {fileID: 11400000, guid: 5cc6615c008ef2c489d5200305da81bf, type: 2}
  - m_RefCount: 1
    m_Data: {fileID: 11400000, guid: 13b19b6ad382916498c466a144d6ad85, type: 2}
  - m_RefCount: 1
    m_Data: {fileID: 11400000, guid: c82569a7362418844a47f6d05a2ff1ed, type: 2}
  - m_RefCount: 1
    m_Data: {fileID: 11400000, guid: bb6b78068fafbd84d8b12393e5a67ae0, type: 2}
  - m_RefCount: 1
    m_Data: {fileID: 11400000, guid: 631e0e44201e34d44be578b4da33989f, type: 2}
  - m_RefCount: 1
    m_Data: {fileID: 11400000, guid: 24c95ef1e214ba942830603e65672070, type: 2}
  - m_RefCount: 1
    m_Data: {fileID: 11400000, guid: dc6bf7ff2eb3b8549983f5baa4015699, type: 2}
  - m_RefCount: 1
    m_Data: {fileID: 11400000, guid: 389f7e265984e9e4d8750b2ea5523a84, type: 2}
  - m_RefCount: 1
    m_Data: {fileID: 11400000, guid: 5a733d155dfb2b749953bc2855e92b4f, type: 2}
  - m_RefCount: 1
    m_Data: {fileID: 11400000, guid: 45521d443cae5674d8ee47822f529f42, type: 2}
  - m_RefCount: 1
    m_Data: {fileID: 11400000, guid: 730988eb31d969046b53c34165c53a4a, type: 2}
  - m_RefCount: 1
    m_Data: {fileID: 11400000, guid: 90571e44a2baaf646b47e2f06104c111, type: 2}
  - m_RefCount: 1
    m_Data: {fileID: 11400000, guid: 274fdcbabbe32e041885f5a7997dcbf2, type: 2}
  - m_RefCount: 1
    m_Data: {fileID: 11400000, guid: b1991224275c68a4dbdb7cab10ade54c, type: 2}
  - m_RefCount: 1
    m_Data: {fileID: 11400000, guid: 8430131afc51fda428c4e09d3756ed7c, type: 2}
  - m_RefCount: 1
    m_Data: {fileID: 11400000, guid: 2881af7edc5537a44b3e7e63f1c23edd, type: 2}
  - m_RefCount: 1
    m_Data: {fileID: 11400000, guid: 3b878d522c8e1744b90638f57ff2aef4, type: 2}
  - m_RefCount: 1
    m_Data: {fileID: 11400000, guid: d2f87acb219348b4b84497983f64f41e, type: 2}
  - m_RefCount: 1
    m_Data: {fileID: 11400000, guid: 1433039fca25afa4e9e9f9fc256a63ac, type: 2}
  - m_RefCount: 1
    m_Data: {fileID: 11400000, guid: 48160b2584bf06c4f892f91802e079fa, type: 2}
  - m_RefCount: 1
    m_Data: {fileID: 11400000, guid: 93671e2e8b6ca30479c085c7c72ef2fc, type: 2}
  - m_RefCount: 1
    m_Data: {fileID: 11400000, guid: 85db29626d31ef24ca57ad42d510b609, type: 2}
  - m_RefCount: 1
    m_Data: {fileID: 11400000, guid: 48abd18b4932b764c80b5d49dbbd3325, type: 2}
  - m_RefCount: 1
    m_Data: {fileID: 11400000, guid: 5a2db6b1a5dbfe542948e6b367729d09, type: 2}
  - m_RefCount: 1
    m_Data: {fileID: 11400000, guid: b31a72f753393cb4d9f5dda6a5fc9416, type: 2}
  - m_RefCount: 1
    m_Data: {fileID: 11400000, guid: f99bdb832eb68fb498ebd215df14e7d0, type: 2}
  - m_RefCount: 1
    m_Data: {fileID: 11400000, guid: 011585e64134867448e3e7489a3448ad, type: 2}
  - m_RefCount: 1
    m_Data: {fileID: 11400000, guid: d6daebaec9bb26341af4065f07f4f484, type: 2}
  - m_RefCount: 1
    m_Data: {fileID: 11400000, guid: 06850fd23a4053247a7f73c257a9573a, type: 2}
  - m_RefCount: 1
    m_Data: {fileID: 11400000, guid: d30e0af648fcf9948b0ac352a879eb2c, type: 2}
  - m_RefCount: 1
    m_Data: {fileID: 11400000, guid: d0636ce103a97ae42adfdede9719c9bc, type: 2}
  - m_RefCount: 1
    m_Data: {fileID: 11400000, guid: 23af893f7b8d0724c9c409243038f667, type: 2}
  - m_RefCount: 1
    m_Data: {fileID: 11400000, guid: 08f4b5d2d2379064e9d216d7b6e807f7, type: 2}
  - m_RefCount: 1
    m_Data: {fileID: 11400000, guid: c8038e080a5f139428e2ac8485a3bba1, type: 2}
  - m_RefCount: 1
    m_Data: {fileID: 11400000, guid: ca2ea133a7b31c84498d0f347e506366, type: 2}
  - m_RefCount: 1
    m_Data: {fileID: 11400000, guid: 580585522a7e53f428a7a095d0c9cfce, type: 2}
  - m_RefCount: 1
    m_Data: {fileID: 11400000, guid: e55ca2b412c0cc94198285261db52aac, type: 2}
  - m_RefCount: 1
    m_Data: {fileID: 11400000, guid: 273d8470371a5844da5d597334dc75ea, type: 2}
  - m_RefCount: 1
    m_Data: {fileID: 11400000, guid: f6efff264f3ed944cb9fb732ce67649c, type: 2}
  - m_RefCount: 1
    m_Data: {fileID: 11400000, guid: c7a956536f959b04698fcf13d9f01919, type: 2}
  - m_RefCount: 1
    m_Data: {fileID: 11400000, guid: 1863df4028d0b64488dbb1c9e02d6506, type: 2}
  - m_RefCount: 1
    m_Data: {fileID: 11400000, guid: c95222570c9f15342b972faf68fa7e27, type: 2}
  - m_RefCount: 1
    m_Data: {fileID: 11400000, guid: ae37e44f62c92f840a6639a586940626, type: 2}
  - m_RefCount: 1
    m_Data: {fileID: 11400000, guid: 6ef954d22c674da4d95ffda21a4f3cfe, type: 2}
  - m_RefCount: 1
    m_Data: {fileID: 11400000, guid: c4764848dff5f304d863183336b91c4e, type: 2}
  - m_RefCount: 1
    m_Data: {fileID: 11400000, guid: fe6cd0bb5f485c64e870699e5017ab1a, type: 2}
  - m_RefCount: 1
    m_Data: {fileID: 11400000, guid: 647830ed76b78ec439f87ff17ac732f7, type: 2}
  - m_RefCount: 1
    m_Data: {fileID: 11400000, guid: 02d1827375417bb4ca71460607fbafc2, type: 2}
  - m_RefCount: 1
    m_Data: {fileID: 11400000, guid: b167ba22b50dd7e4a8106c7073a7598f, type: 2}
  - m_RefCount: 1
    m_Data: {fileID: 11400000, guid: 20a7be8688430614897d0de23c4cdf13, type: 2}
  - m_RefCount: 1
    m_Data: {fileID: 11400000, guid: 40871c44a0290f24faa8586974d966da, type: 2}
  - m_RefCount: 1
    m_Data: {fileID: 11400000, guid: 1bc1805b2ce8df141be3b2fe7e44c605, type: 2}
  - m_RefCount: 1
    m_Data: {fileID: 11400000, guid: f86e749dd62aa33449e2f5766a216959, type: 2}
  - m_RefCount: 1
    m_Data: {fileID: 11400000, guid: 3eff867c834ce53488be435088799063, type: 2}
  - m_RefCount: 1
    m_Data: {fileID: 11400000, guid: cadcebc344648054083f2454d56d446b, type: 2}
  - m_RefCount: 1
    m_Data: {fileID: 11400000, guid: 59d4144d720f3e14abef84bdfd94419f, type: 2}
  - m_RefCount: 1
    m_Data: {fileID: 11400000, guid: a2deae2d078d9a5428b993bfc16ff5ed, type: 2}
  - m_RefCount: 1
    m_Data: {fileID: 11400000, guid: 06f6a17b6a0be724287eda83ff770bca, type: 2}
  - m_RefCount: 1
    m_Data: {fileID: 11400000, guid: 316b06f1badde72478b6d59b0f52a8c8, type: 2}
  - m_RefCount: 1
    m_Data: {fileID: 11400000, guid: 2c6c842cfced9f643a9fca0a6cb216f3, type: 2}
  - m_RefCount: 1
    m_Data: {fileID: 11400000, guid: 60e3402eb27e5f741b71b3db752e907e, type: 2}
  - m_RefCount: 1
    m_Data: {fileID: 11400000, guid: c563545883466ae4cae71e943bc51696, type: 2}
  - m_RefCount: 1
    m_Data: {fileID: 11400000, guid: e124d6c3a32e58d4fb8570dc736eb2ff, type: 2}
  - m_RefCount: 1
    m_Data: {fileID: 11400000, guid: f1b9bea1757a58240b245487b0bb3e37, type: 2}
  - m_RefCount: 1
    m_Data: {fileID: 11400000, guid: 45b56f920e9e46043a89a833455d001b, type: 2}
  - m_RefCount: 1
    m_Data: {fileID: 11400000, guid: 09eb31a6b0c81a94ba31f339c5d0766a, type: 2}
  - m_RefCount: 1
    m_Data: {fileID: 11400000, guid: a96b7b54b9bb53b4298315895fd3edb0, type: 2}
  - m_RefCount: 1
    m_Data: {fileID: 11400000, guid: ed91ea96f61f5284e8272ebad0e25761, type: 2}
  - m_RefCount: 1
    m_Data: {fileID: 11400000, guid: 19fd6f1f259e57f4d9a05d8a694557c4, type: 2}
  - m_RefCount: 1
    m_Data: {fileID: 11400000, guid: 1b27e385d3393f04d83ee97da85d186d, type: 2}
  - m_RefCount: 1
    m_Data: {fileID: 11400000, guid: 21cf5570d6fbe5f4c9af8ac428753e5b, type: 2}
  - m_RefCount: 1
    m_Data: {fileID: 11400000, guid: 4e78e7fbf67deff4c8ed97a759ba00c9, type: 2}
  - m_RefCount: 1
    m_Data: {fileID: 11400000, guid: 84948b2f0157c5b4e89a965abff061e7, type: 2}
  - m_RefCount: 1
    m_Data: {fileID: 11400000, guid: 1147434e02ec008469a2fc7ec6af786b, type: 2}
  - m_RefCount: 1
    m_Data: {fileID: 11400000, guid: dacaf6c9e7d35294e9c83104373c4590, type: 2}
  - m_RefCount: 1
    m_Data: {fileID: 11400000, guid: ad423e554d276a74a85811fe243a8c42, type: 2}
  - m_RefCount: 1
    m_Data: {fileID: 11400000, guid: b137bea769d5c804bb1510e77b76adce, type: 2}
  - m_RefCount: 1
    m_Data: {fileID: 11400000, guid: ee05aec025365a74cab434f5471d5b34, type: 2}
  - m_RefCount: 1
    m_Data: {fileID: 11400000, guid: d3df112b3bd132143bba5f52cab93e54, type: 2}
  - m_RefCount: 1
    m_Data: {fileID: 11400000, guid: 6e6d69d204ea9384180dc118713b0750, type: 2}
  - m_RefCount: 1
    m_Data: {fileID: 11400000, guid: ab69f1f427569054798b6aa08f13fa6f, type: 2}
  - m_RefCount: 1
    m_Data: {fileID: 11400000, guid: cb56b74d5eccc6649be6ca20c1751c9e, type: 2}
  - m_RefCount: 1
    m_Data: {fileID: 11400000, guid: 6cce58ec33afae34e832b06d805c1e1e, type: 2}
  - m_RefCount: 1
    m_Data: {fileID: 11400000, guid: 83864b045ec7e004f90de75d83282781, type: 2}
  - m_RefCount: 1
    m_Data: {fileID: 11400000, guid: ac9b90a0d76dde74385bd21663139fac, type: 2}
  - m_RefCount: 1
    m_Data: {fileID: 11400000, guid: e9c3e1fe700834043b282ec53ef5a26c, type: 2}
  - m_RefCount: 1
    m_Data: {fileID: 11400000, guid: 8e7231f5ba1a24b42887d4683d8f066c, type: 2}
  - m_RefCount: 1
    m_Data: {fileID: 11400000, guid: 37dadb2f001490f42abe013993c036ab, type: 2}
  - m_RefCount: 1
    m_Data: {fileID: 11400000, guid: 1099bf6ca7187c5408c6634c900341ab, type: 2}
  - m_RefCount: 1
    m_Data: {fileID: 11400000, guid: f38aa1edc3b60b242b53bbab3e6600b0, type: 2}
  - m_RefCount: 1
    m_Data: {fileID: 11400000, guid: b2a2ebadadf12964c9839414f1157509, type: 2}
  - m_RefCount: 1
    m_Data: {fileID: 11400000, guid: e76f8b62f57cab8478eb4e5561041766, type: 2}
  - m_RefCount: 1
    m_Data: {fileID: 11400000, guid: 40c0ac756b4a1684cb7be6218a2dc4b3, type: 2}
  - m_RefCount: 1
    m_Data: {fileID: 11400000, guid: a95c14a063a581849a531ccd639a8489, type: 2}
  m_TileSpriteArray:
  - m_RefCount: 1
    m_Data: {fileID: 21300000, guid: dc5932a1dafb3494c9a47cd8f4c49420, type: 3}
  - m_RefCount: 1
    m_Data: {fileID: 21300002, guid: dc5932a1dafb3494c9a47cd8f4c49420, type: 3}
  - m_RefCount: 1
    m_Data: {fileID: 21300004, guid: dc5932a1dafb3494c9a47cd8f4c49420, type: 3}
  - m_RefCount: 1
    m_Data: {fileID: 21300006, guid: dc5932a1dafb3494c9a47cd8f4c49420, type: 3}
  - m_RefCount: 1
    m_Data: {fileID: 21300008, guid: dc5932a1dafb3494c9a47cd8f4c49420, type: 3}
  - m_RefCount: 1
    m_Data: {fileID: 21300010, guid: dc5932a1dafb3494c9a47cd8f4c49420, type: 3}
  - m_RefCount: 1
    m_Data: {fileID: 21300012, guid: dc5932a1dafb3494c9a47cd8f4c49420, type: 3}
  - m_RefCount: 1
    m_Data: {fileID: 21300014, guid: dc5932a1dafb3494c9a47cd8f4c49420, type: 3}
  - m_RefCount: 1
    m_Data: {fileID: 21300016, guid: dc5932a1dafb3494c9a47cd8f4c49420, type: 3}
  - m_RefCount: 1
    m_Data: {fileID: 21300018, guid: dc5932a1dafb3494c9a47cd8f4c49420, type: 3}
  - m_RefCount: 1
    m_Data: {fileID: 21300020, guid: dc5932a1dafb3494c9a47cd8f4c49420, type: 3}
  - m_RefCount: 1
    m_Data: {fileID: 21300022, guid: dc5932a1dafb3494c9a47cd8f4c49420, type: 3}
  - m_RefCount: 1
    m_Data: {fileID: 21300024, guid: dc5932a1dafb3494c9a47cd8f4c49420, type: 3}
  - m_RefCount: 1
    m_Data: {fileID: 21300026, guid: dc5932a1dafb3494c9a47cd8f4c49420, type: 3}
  - m_RefCount: 1
    m_Data: {fileID: 21300028, guid: dc5932a1dafb3494c9a47cd8f4c49420, type: 3}
  - m_RefCount: 1
    m_Data: {fileID: 21300030, guid: dc5932a1dafb3494c9a47cd8f4c49420, type: 3}
  - m_RefCount: 1
    m_Data: {fileID: 21300032, guid: dc5932a1dafb3494c9a47cd8f4c49420, type: 3}
  - m_RefCount: 1
    m_Data: {fileID: 21300034, guid: dc5932a1dafb3494c9a47cd8f4c49420, type: 3}
  - m_RefCount: 1
    m_Data: {fileID: 21300036, guid: dc5932a1dafb3494c9a47cd8f4c49420, type: 3}
  - m_RefCount: 1
    m_Data: {fileID: 21300038, guid: dc5932a1dafb3494c9a47cd8f4c49420, type: 3}
  - m_RefCount: 1
    m_Data: {fileID: 21300040, guid: dc5932a1dafb3494c9a47cd8f4c49420, type: 3}
  - m_RefCount: 1
    m_Data: {fileID: 21300042, guid: dc5932a1dafb3494c9a47cd8f4c49420, type: 3}
  - m_RefCount: 1
    m_Data: {fileID: 21300044, guid: dc5932a1dafb3494c9a47cd8f4c49420, type: 3}
  - m_RefCount: 1
    m_Data: {fileID: 21300046, guid: dc5932a1dafb3494c9a47cd8f4c49420, type: 3}
  - m_RefCount: 1
    m_Data: {fileID: 21300048, guid: dc5932a1dafb3494c9a47cd8f4c49420, type: 3}
  - m_RefCount: 1
    m_Data: {fileID: 21300050, guid: dc5932a1dafb3494c9a47cd8f4c49420, type: 3}
  - m_RefCount: 1
    m_Data: {fileID: 21300052, guid: dc5932a1dafb3494c9a47cd8f4c49420, type: 3}
  - m_RefCount: 1
    m_Data: {fileID: 21300054, guid: dc5932a1dafb3494c9a47cd8f4c49420, type: 3}
  - m_RefCount: 1
    m_Data: {fileID: 21300056, guid: dc5932a1dafb3494c9a47cd8f4c49420, type: 3}
  - m_RefCount: 1
    m_Data: {fileID: 21300058, guid: dc5932a1dafb3494c9a47cd8f4c49420, type: 3}
  - m_RefCount: 1
    m_Data: {fileID: 21300060, guid: dc5932a1dafb3494c9a47cd8f4c49420, type: 3}
  - m_RefCount: 1
    m_Data: {fileID: 21300062, guid: dc5932a1dafb3494c9a47cd8f4c49420, type: 3}
  - m_RefCount: 1
    m_Data: {fileID: 21300064, guid: dc5932a1dafb3494c9a47cd8f4c49420, type: 3}
  - m_RefCount: 1
    m_Data: {fileID: 21300066, guid: dc5932a1dafb3494c9a47cd8f4c49420, type: 3}
  - m_RefCount: 1
    m_Data: {fileID: 21300068, guid: dc5932a1dafb3494c9a47cd8f4c49420, type: 3}
  - m_RefCount: 1
    m_Data: {fileID: 21300070, guid: dc5932a1dafb3494c9a47cd8f4c49420, type: 3}
  - m_RefCount: 1
    m_Data: {fileID: 21300072, guid: dc5932a1dafb3494c9a47cd8f4c49420, type: 3}
  - m_RefCount: 1
    m_Data: {fileID: 21300074, guid: dc5932a1dafb3494c9a47cd8f4c49420, type: 3}
  - m_RefCount: 1
    m_Data: {fileID: 21300076, guid: dc5932a1dafb3494c9a47cd8f4c49420, type: 3}
  - m_RefCount: 1
    m_Data: {fileID: 21300078, guid: dc5932a1dafb3494c9a47cd8f4c49420, type: 3}
  - m_RefCount: 1
    m_Data: {fileID: 21300080, guid: dc5932a1dafb3494c9a47cd8f4c49420, type: 3}
  - m_RefCount: 1
    m_Data: {fileID: 21300082, guid: dc5932a1dafb3494c9a47cd8f4c49420, type: 3}
  - m_RefCount: 1
    m_Data: {fileID: 21300084, guid: dc5932a1dafb3494c9a47cd8f4c49420, type: 3}
  - m_RefCount: 1
    m_Data: {fileID: 21300086, guid: dc5932a1dafb3494c9a47cd8f4c49420, type: 3}
  - m_RefCount: 1
    m_Data: {fileID: 21300088, guid: dc5932a1dafb3494c9a47cd8f4c49420, type: 3}
  - m_RefCount: 1
    m_Data: {fileID: 21300090, guid: dc5932a1dafb3494c9a47cd8f4c49420, type: 3}
  - m_RefCount: 1
    m_Data: {fileID: 21300092, guid: dc5932a1dafb3494c9a47cd8f4c49420, type: 3}
  - m_RefCount: 1
    m_Data: {fileID: 21300094, guid: dc5932a1dafb3494c9a47cd8f4c49420, type: 3}
  - m_RefCount: 1
    m_Data: {fileID: 21300096, guid: dc5932a1dafb3494c9a47cd8f4c49420, type: 3}
  - m_RefCount: 1
    m_Data: {fileID: 21300098, guid: dc5932a1dafb3494c9a47cd8f4c49420, type: 3}
  - m_RefCount: 1
    m_Data: {fileID: 21300100, guid: dc5932a1dafb3494c9a47cd8f4c49420, type: 3}
  - m_RefCount: 1
    m_Data: {fileID: 21300102, guid: dc5932a1dafb3494c9a47cd8f4c49420, type: 3}
  - m_RefCount: 1
    m_Data: {fileID: 21300104, guid: dc5932a1dafb3494c9a47cd8f4c49420, type: 3}
  - m_RefCount: 1
    m_Data: {fileID: 21300106, guid: dc5932a1dafb3494c9a47cd8f4c49420, type: 3}
  - m_RefCount: 1
    m_Data: {fileID: 21300108, guid: dc5932a1dafb3494c9a47cd8f4c49420, type: 3}
  - m_RefCount: 1
    m_Data: {fileID: 21300110, guid: dc5932a1dafb3494c9a47cd8f4c49420, type: 3}
  - m_RefCount: 1
    m_Data: {fileID: 21300112, guid: dc5932a1dafb3494c9a47cd8f4c49420, type: 3}
  - m_RefCount: 1
    m_Data: {fileID: 21300114, guid: dc5932a1dafb3494c9a47cd8f4c49420, type: 3}
  - m_RefCount: 1
    m_Data: {fileID: 21300116, guid: dc5932a1dafb3494c9a47cd8f4c49420, type: 3}
  - m_RefCount: 1
    m_Data: {fileID: 21300118, guid: dc5932a1dafb3494c9a47cd8f4c49420, type: 3}
  - m_RefCount: 1
    m_Data: {fileID: 21300120, guid: dc5932a1dafb3494c9a47cd8f4c49420, type: 3}
  - m_RefCount: 1
    m_Data: {fileID: 21300122, guid: dc5932a1dafb3494c9a47cd8f4c49420, type: 3}
  - m_RefCount: 1
    m_Data: {fileID: 21300124, guid: dc5932a1dafb3494c9a47cd8f4c49420, type: 3}
  - m_RefCount: 1
    m_Data: {fileID: 21300126, guid: dc5932a1dafb3494c9a47cd8f4c49420, type: 3}
  - m_RefCount: 1
    m_Data: {fileID: 21300128, guid: dc5932a1dafb3494c9a47cd8f4c49420, type: 3}
  - m_RefCount: 1
    m_Data: {fileID: 21300130, guid: dc5932a1dafb3494c9a47cd8f4c49420, type: 3}
  - m_RefCount: 1
    m_Data: {fileID: 21300132, guid: dc5932a1dafb3494c9a47cd8f4c49420, type: 3}
  - m_RefCount: 1
    m_Data: {fileID: 21300134, guid: dc5932a1dafb3494c9a47cd8f4c49420, type: 3}
  - m_RefCount: 1
    m_Data: {fileID: 21300136, guid: dc5932a1dafb3494c9a47cd8f4c49420, type: 3}
  - m_RefCount: 1
    m_Data: {fileID: 21300138, guid: dc5932a1dafb3494c9a47cd8f4c49420, type: 3}
  - m_RefCount: 1
    m_Data: {fileID: 21300140, guid: dc5932a1dafb3494c9a47cd8f4c49420, type: 3}
  - m_RefCount: 1
    m_Data: {fileID: 21300142, guid: dc5932a1dafb3494c9a47cd8f4c49420, type: 3}
  - m_RefCount: 1
    m_Data: {fileID: 21300144, guid: dc5932a1dafb3494c9a47cd8f4c49420, type: 3}
  - m_RefCount: 1
    m_Data: {fileID: 21300146, guid: dc5932a1dafb3494c9a47cd8f4c49420, type: 3}
  - m_RefCount: 1
    m_Data: {fileID: 21300148, guid: dc5932a1dafb3494c9a47cd8f4c49420, type: 3}
  - m_RefCount: 1
    m_Data: {fileID: 21300150, guid: dc5932a1dafb3494c9a47cd8f4c49420, type: 3}
  - m_RefCount: 1
    m_Data: {fileID: 21300152, guid: dc5932a1dafb3494c9a47cd8f4c49420, type: 3}
  - m_RefCount: 1
    m_Data: {fileID: 21300154, guid: dc5932a1dafb3494c9a47cd8f4c49420, type: 3}
  - m_RefCount: 1
    m_Data: {fileID: 21300156, guid: dc5932a1dafb3494c9a47cd8f4c49420, type: 3}
  - m_RefCount: 1
    m_Data: {fileID: 21300158, guid: dc5932a1dafb3494c9a47cd8f4c49420, type: 3}
  - m_RefCount: 1
    m_Data: {fileID: 21300160, guid: dc5932a1dafb3494c9a47cd8f4c49420, type: 3}
  - m_RefCount: 1
    m_Data: {fileID: 21300162, guid: dc5932a1dafb3494c9a47cd8f4c49420, type: 3}
  - m_RefCount: 1
    m_Data: {fileID: 21300164, guid: dc5932a1dafb3494c9a47cd8f4c49420, type: 3}
  - m_RefCount: 1
    m_Data: {fileID: 21300166, guid: dc5932a1dafb3494c9a47cd8f4c49420, type: 3}
  - m_RefCount: 1
    m_Data: {fileID: 21300168, guid: dc5932a1dafb3494c9a47cd8f4c49420, type: 3}
  - m_RefCount: 1
    m_Data: {fileID: 21300170, guid: dc5932a1dafb3494c9a47cd8f4c49420, type: 3}
  - m_RefCount: 1
    m_Data: {fileID: 21300172, guid: dc5932a1dafb3494c9a47cd8f4c49420, type: 3}
  - m_RefCount: 1
    m_Data: {fileID: 21300174, guid: dc5932a1dafb3494c9a47cd8f4c49420, type: 3}
  - m_RefCount: 1
    m_Data: {fileID: 21300176, guid: dc5932a1dafb3494c9a47cd8f4c49420, type: 3}
  - m_RefCount: 1
    m_Data: {fileID: 21300178, guid: dc5932a1dafb3494c9a47cd8f4c49420, type: 3}
  - m_RefCount: 1
    m_Data: {fileID: 21300180, guid: dc5932a1dafb3494c9a47cd8f4c49420, type: 3}
  - m_RefCount: 1
    m_Data: {fileID: 21300182, guid: dc5932a1dafb3494c9a47cd8f4c49420, type: 3}
  - m_RefCount: 1
    m_Data: {fileID: 21300184, guid: dc5932a1dafb3494c9a47cd8f4c49420, type: 3}
  - m_RefCount: 1
    m_Data: {fileID: 21300186, guid: dc5932a1dafb3494c9a47cd8f4c49420, type: 3}
  - m_RefCount: 1
    m_Data: {fileID: 21300188, guid: dc5932a1dafb3494c9a47cd8f4c49420, type: 3}
  - m_RefCount: 1
    m_Data: {fileID: 21300190, guid: dc5932a1dafb3494c9a47cd8f4c49420, type: 3}
  - m_RefCount: 1
    m_Data: {fileID: 21300192, guid: dc5932a1dafb3494c9a47cd8f4c49420, type: 3}
  - m_RefCount: 1
    m_Data: {fileID: 21300194, guid: dc5932a1dafb3494c9a47cd8f4c49420, type: 3}
  - m_RefCount: 1
    m_Data: {fileID: 21300196, guid: dc5932a1dafb3494c9a47cd8f4c49420, type: 3}
  - m_RefCount: 1
    m_Data: {fileID: 21300198, guid: dc5932a1dafb3494c9a47cd8f4c49420, type: 3}
  m_TileMatrixArray:
  - m_RefCount: 100
    m_Data:
      e00: 1
      e01: 0
      e02: 0
      e03: 0
      e10: 0
      e11: 1
      e12: 0
      e13: 0
      e20: 0
      e21: 0
      e22: 1
      e23: 0
      e30: 0
      e31: 0
      e32: 0
      e33: 1
  m_TileColorArray:
  - m_RefCount: 100
    m_Data: {r: 1, g: 1, b: 1, a: 1}
  m_AnimationFrameRate: 1
  m_Color: {r: 1, g: 1, b: 1, a: 1}
  m_Origin: {x: -3, y: -6, z: 0}
  m_Size: {x: 17, y: 8, z: 1}
  m_TileAnchor: {x: 0.5, y: 0.5, z: 0}
  m_TileOrientation: 0
  m_TileOrientationMatrix:
    e00: 1
    e01: 0
    e02: 0
    e03: 0
    e10: 0
    e11: 1
    e12: 0
    e13: 0
    e20: 0
    e21: 0
    e22: 1
    e23: 0
    e30: 0
    e31: 0
    e32: 0
    e33: 1
--- !u!483693784 &178839601380323645
TilemapRenderer:
  m_ObjectHideFlags: 0
  m_CorrespondingSourceObject: {fileID: 0}
  m_PrefabInstance: {fileID: 0}
  m_PrefabAsset: {fileID: 0}
  m_GameObject: {fileID: 4369248719379762179}
  m_Enabled: 0
  m_CastShadows: 0
  m_ReceiveShadows: 0
  m_DynamicOccludee: 0
  m_MotionVectors: 1
  m_LightProbeUsage: 0
  m_ReflectionProbeUsage: 0
  m_RenderingLayerMask: 1
  m_RendererPriority: 0
  m_Materials:
  - {fileID: 10754, guid: 0000000000000000f000000000000000, type: 0}
  m_StaticBatchInfo:
    firstSubMesh: 0
    subMeshCount: 0
  m_StaticBatchRoot: {fileID: 0}
  m_ProbeAnchor: {fileID: 0}
  m_LightProbeVolumeOverride: {fileID: 0}
  m_ScaleInLightmap: 1
  m_PreserveUVs: 0
  m_IgnoreNormalsForChartDetection: 0
  m_ImportantGI: 0
  m_StitchLightmapSeams: 0
  m_SelectedEditorRenderState: 0
  m_MinimumChartSize: 4
  m_AutoUVMaxDistance: 0.5
  m_AutoUVMaxAngle: 89
  m_LightmapParameters: {fileID: 0}
  m_SortingLayerID: 0
  m_SortingLayer: 0
  m_SortingOrder: 0
  m_ChunkSize: {x: 32, y: 32, z: 32}
  m_ChunkCullingBounds: {x: 0, y: 0, z: 0}
  m_MaxChunkCount: 16
  m_MaxFrameAge: 16
  m_SortOrder: 0
  m_Mode: 0
  m_DetectChunkCullingBounds: 0
  m_MaskInteraction: 0
--- !u!114 &114249444089069334
MonoBehaviour:
  m_ObjectHideFlags: 0
  m_CorrespondingSourceObject: {fileID: 0}
  m_PrefabInstance: {fileID: 0}
  m_PrefabAsset: {fileID: 0}
  m_GameObject: {fileID: 0}
  m_Enabled: 1
  m_EditorHideFlags: 0
  m_Script: {fileID: 12395, guid: 0000000000000000e000000000000000, type: 0}
  m_Name: Palette Settings
  m_EditorClassIdentifier: 
  cellSizing: 0
