%YAML 1.1
%TAG !u! tag:unity3d.com,2011:
--- !u!74 &7400000
AnimationClip:
  m_ObjectHideFlags: 0
  m_CorrespondingSourceObject: {fileID: 0}
  m_PrefabInstance: {fileID: 0}
  m_PrefabAsset: {fileID: 0}
  m_Name: FirePillar
  serializedVersion: 6
  m_Legacy: 0
  m_Compressed: 0
  m_UseHighQualityCurve: 1
  m_RotationCurves: []
  m_CompressedRotationCurves: []
  m_EulerCurves: []
  m_PositionCurves: []
  m_ScaleCurves: []
  m_FloatCurves: []
  m_PPtrCurves:
  - curve:
    - time: 0
      value: {fileID: 21300000, guid: 3a3a2a6726d1b9e4f9ffeea8b54427a6, type: 3}
    - time: 0.083333336
      value: {fileID: 21300002, guid: 3a3a2a6726d1b9e4f9ffeea8b54427a6, type: 3}
    - time: 0.16666667
      value: {fileID: 21300004, guid: 3a3a2a6726d1b9e4f9ffeea8b54427a6, type: 3}
    - time: 0.25
      value: {fileID: 21300006, guid: 3a3a2a6726d1b9e4f9ffeea8b54427a6, type: 3}
    - time: 0.33333334
      value: {fileID: 21300008, guid: 3a3a2a6726d1b9e4f9ffeea8b54427a6, type: 3}
    - time: 0.41666666
      value: {fileID: 21300010, guid: 3a3a2a6726d1b9e4f9ffeea8b54427a6, type: 3}
    - time: 0.5
      value: {fileID: 21300000, guid: 2abc52846c1ad554b9d0773c1b2aa3fb, type: 3}
    - time: 0.5833333
      value: {fileID: 21300002, guid: 2abc52846c1ad554b9d0773c1b2aa3fb, type: 3}
    - time: 0.6666667
      value: {fileID: 21300004, guid: 2abc52846c1ad554b9d0773c1b2aa3fb, type: 3}
    - time: 0.75
      value: {fileID: 21300006, guid: 2abc52846c1ad554b9d0773c1b2aa3fb, type: 3}
    - time: 0.8333333
      value: {fileID: 21300008, guid: 2abc52846c1ad554b9d0773c1b2aa3fb, type: 3}
    - time: 0.9166667
      value: {fileID: 21300010, guid: 2abc52846c1ad554b9d0773c1b2aa3fb, type: 3}
    - time: 1
      value: {fileID: 21300000, guid: cb054497d3bf03247812941f004dfcbd, type: 3}
    - time: 1.0833334
      value: {fileID: 21300002, guid: cb054497d3bf03247812941f004dfcbd, type: 3}
    - time: 1.1666666
      value: {fileID: 21300004, guid: cb054497d3bf03247812941f004dfcbd, type: 3}
    - time: 1.25
      value: {fileID: 21300006, guid: cb054497d3bf03247812941f004dfcbd, type: 3}
    - time: 1.3333334
      value: {fileID: 21300008, guid: cb054497d3bf03247812941f004dfcbd, type: 3}
    - time: 1.4166666
      value: {fileID: 21300010, guid: cb054497d3bf03247812941f004dfcbd, type: 3}
    - time: 1.5
      value: {fileID: 21300000, guid: 154ff7d4d18aa1a4e867593b5408b4d1, type: 3}
    - time: 1.5833334
      value: {fileID: 21300002, guid: 154ff7d4d18aa1a4e867593b5408b4d1, type: 3}
    - time: 1.6666666
      value: {fileID: 21300004, guid: 154ff7d4d18aa1a4e867593b5408b4d1, type: 3}
    - time: 1.75
      value: {fileID: 21300006, guid: 154ff7d4d18aa1a4e867593b5408b4d1, type: 3}
    - time: 1.8333334
      value: {fileID: 21300008, guid: 154ff7d4d18aa1a4e867593b5408b4d1, type: 3}
    - time: 1.9166666
      value: {fileID: 21300010, guid: 154ff7d4d18aa1a4e867593b5408b4d1, type: 3}
    - time: 2
      value: {fileID: 21300000, guid: 166dae9896904ca4481f8c861302bca7, type: 3}
    - time: 2.0833333
      value: {fileID: 21300002, guid: 166dae9896904ca4481f8c861302bca7, type: 3}
    - time: 2.1666667
      value: {fileID: 21300004, guid: 166dae9896904ca4481f8c861302bca7, type: 3}
    - time: 2.25
      value: {fileID: 21300006, guid: 166dae9896904ca4481f8c861302bca7, type: 3}
    - time: 2.3333333
      value: {fileID: 21300008, guid: 166dae9896904ca4481f8c861302bca7, type: 3}
    - time: 2.4166667
      value: {fileID: 21300010, guid: 166dae9896904ca4481f8c861302bca7, type: 3}
    - time: 2.5
      value: {fileID: 21300000, guid: dc08c16f41537984fa08df91bf223d7e, type: 3}
    - time: 2.5833333
      value: {fileID: 21300002, guid: dc08c16f41537984fa08df91bf223d7e, type: 3}
    - time: 2.6666667
      value: {fileID: 21300004, guid: dc08c16f41537984fa08df91bf223d7e, type: 3}
    - time: 2.75
      value: {fileID: 21300006, guid: dc08c16f41537984fa08df91bf223d7e, type: 3}
    - time: 2.8333333
      value: {fileID: 21300008, guid: dc08c16f41537984fa08df91bf223d7e, type: 3}
    - time: 2.9166667
      value: {fileID: 21300010, guid: dc08c16f41537984fa08df91bf223d7e, type: 3}
    - time: 3
      value: {fileID: 21300000, guid: 6d184683c29a1c7459b27813c9f20494, type: 3}
    - time: 3.0833333
      value: {fileID: 21300002, guid: 6d184683c29a1c7459b27813c9f20494, type: 3}
    - time: 3.1666667
      value: {fileID: 21300004, guid: 6d184683c29a1c7459b27813c9f20494, type: 3}
    - time: 3.25
      value: {fileID: 21300006, guid: 6d184683c29a1c7459b27813c9f20494, type: 3}
    - time: 3.3333333
      value: {fileID: 21300008, guid: 6d184683c29a1c7459b27813c9f20494, type: 3}
    - time: 3.4166667
      value: {fileID: 21300010, guid: 6d184683c29a1c7459b27813c9f20494, type: 3}
    - time: 3.5
      value: {fileID: 21300000, guid: badbe505714df4b47808ec1918054313, type: 3}
    - time: 3.5833333
      value: {fileID: 21300002, guid: badbe505714df4b47808ec1918054313, type: 3}
    - time: 3.6666667
      value: {fileID: 21300004, guid: badbe505714df4b47808ec1918054313, type: 3}
    attribute: m_Sprite
    path: 
    classID: 212
    script: {fileID: 0}
  m_SampleRate: 12
  m_WrapMode: 0
  m_Bounds:
    m_Center: {x: 0, y: 0, z: 0}
    m_Extent: {x: 0, y: 0, z: 0}
  m_ClipBindingConstant:
    genericBindings:
    - serializedVersion: 2
      path: 0
      attribute: 0
      script: {fileID: 0}
      typeID: 212
      customType: 23
      isPPtrCurve: 1
    pptrCurveMapping:
    - {fileID: 21300000, guid: 3a3a2a6726d1b9e4f9ffeea8b54427a6, type: 3}
    - {fileID: 21300002, guid: 3a3a2a6726d1b9e4f9ffeea8b54427a6, type: 3}
    - {fileID: 21300004, guid: 3a3a2a6726d1b9e4f9ffeea8b54427a6, type: 3}
    - {fileID: 21300006, guid: 3a3a2a6726d1b9e4f9ffeea8b54427a6, type: 3}
    - {fileID: 21300008, guid: 3a3a2a6726d1b9e4f9ffeea8b54427a6, type: 3}
    - {fileID: 21300010, guid: 3a3a2a6726d1b9e4f9ffeea8b54427a6, type: 3}
    - {fileID: 21300000, guid: 2abc52846c1ad554b9d0773c1b2aa3fb, type: 3}
    - {fileID: 21300002, guid: 2abc52846c1ad554b9d0773c1b2aa3fb, type: 3}
    - {fileID: 21300004, guid: 2abc52846c1ad554b9d0773c1b2aa3fb, type: 3}
    - {fileID: 21300006, guid: 2abc52846c1ad554b9d0773c1b2aa3fb, type: 3}
    - {fileID: 21300008, guid: 2abc52846c1ad554b9d0773c1b2aa3fb, type: 3}
    - {fileID: 21300010, guid: 2abc52846c1ad554b9d0773c1b2aa3fb, type: 3}
    - {fileID: 21300000, guid: cb054497d3bf03247812941f004dfcbd, type: 3}
    - {fileID: 21300002, guid: cb054497d3bf03247812941f004dfcbd, type: 3}
    - {fileID: 21300004, guid: cb054497d3bf03247812941f004dfcbd, type: 3}
    - {fileID: 21300006, guid: cb054497d3bf03247812941f004dfcbd, type: 3}
    - {fileID: 21300008, guid: cb054497d3bf03247812941f004dfcbd, type: 3}
    - {fileID: 21300010, guid: cb054497d3bf03247812941f004dfcbd, type: 3}
    - {fileID: 21300000, guid: 154ff7d4d18aa1a4e867593b5408b4d1, type: 3}
    - {fileID: 21300002, guid: 154ff7d4d18aa1a4e867593b5408b4d1, type: 3}
    - {fileID: 21300004, guid: 154ff7d4d18aa1a4e867593b5408b4d1, type: 3}
    - {fileID: 21300006, guid: 154ff7d4d18aa1a4e867593b5408b4d1, type: 3}
    - {fileID: 21300008, guid: 154ff7d4d18aa1a4e867593b5408b4d1, type: 3}
    - {fileID: 21300010, guid: 154ff7d4d18aa1a4e867593b5408b4d1, type: 3}
    - {fileID: 21300000, guid: 166dae9896904ca4481f8c861302bca7, type: 3}
    - {fileID: 21300002, guid: 166dae9896904ca4481f8c861302bca7, type: 3}
    - {fileID: 21300004, guid: 166dae9896904ca4481f8c861302bca7, type: 3}
    - {fileID: 21300006, guid: 166dae9896904ca4481f8c861302bca7, type: 3}
    - {fileID: 21300008, guid: 166dae9896904ca4481f8c861302bca7, type: 3}
    - {fileID: 21300010, guid: 166dae9896904ca4481f8c861302bca7, type: 3}
    - {fileID: 21300000, guid: dc08c16f41537984fa08df91bf223d7e, type: 3}
    - {fileID: 21300002, guid: dc08c16f41537984fa08df91bf223d7e, type: 3}
    - {fileID: 21300004, guid: dc08c16f41537984fa08df91bf223d7e, type: 3}
    - {fileID: 21300006, guid: dc08c16f41537984fa08df91bf223d7e, type: 3}
    - {fileID: 21300008, guid: dc08c16f41537984fa08df91bf223d7e, type: 3}
    - {fileID: 21300010, guid: dc08c16f41537984fa08df91bf223d7e, type: 3}
    - {fileID: 21300000, guid: 6d184683c29a1c7459b27813c9f20494, type: 3}
    - {fileID: 21300002, guid: 6d184683c29a1c7459b27813c9f20494, type: 3}
    - {fileID: 21300004, guid: 6d184683c29a1c7459b27813c9f20494, type: 3}
    - {fileID: 21300006, guid: 6d184683c29a1c7459b27813c9f20494, type: 3}
    - {fileID: 21300008, guid: 6d184683c29a1c7459b27813c9f20494, type: 3}
    - {fileID: 21300010, guid: 6d184683c29a1c7459b27813c9f20494, type: 3}
    - {fileID: 21300000, guid: badbe505714df4b47808ec1918054313, type: 3}
    - {fileID: 21300002, guid: badbe505714df4b47808ec1918054313, type: 3}
    - {fileID: 21300004, guid: badbe505714df4b47808ec1918054313, type: 3}
  m_AnimationClipSettings:
    serializedVersion: 2
    m_AdditiveReferencePoseClip: {fileID: 0}
    m_AdditiveReferencePoseTime: 0
    m_StartTime: 0
    m_StopTime: 3.75
    m_OrientationOffsetY: 0
    m_Level: 0
    m_CycleOffset: 0
    m_HasAdditiveReferencePose: 0
    m_LoopTime: 0
    m_LoopBlend: 0
    m_LoopBlendOrientation: 0
    m_LoopBlendPositionY: 0
    m_LoopBlendPositionXZ: 0
    m_KeepOriginalOrientation: 0
    m_KeepOriginalPositionY: 1
    m_KeepOriginalPositionXZ: 0
    m_HeightFromFeet: 0
    m_Mirror: 0
  m_EditorCurves: []
  m_EulerEditorCurves: []
  m_HasGenericRootTransform: 0
  m_HasMotionFloatCurves: 0
  m_Events: []
