%YAML 1.1
%TAG !u! tag:unity3d.com,2011:
--- !u!74 &7400000
AnimationClip:
  m_ObjectHideFlags: 0
  m_CorrespondingSourceObject: {fileID: 0}
  m_PrefabInstance: {fileID: 0}
  m_PrefabAsset: {fileID: 0}
  m_Name: GravityPull
  serializedVersion: 6
  m_Legacy: 0
  m_Compressed: 0
  m_UseHighQualityCurve: 1
  m_RotationCurves: []
  m_CompressedRotationCurves: []
  m_EulerCurves: []
  m_PositionCurves: []
  m_ScaleCurves: []
  m_FloatCurves: []
  m_PPtrCurves:
  - curve:
    - time: 0
      value: {fileID: 21300000, guid: 5ae7e6bc185af5f45a75987ada06aa9b, type: 3}
    - time: 0.083333336
      value: {fileID: 21300002, guid: 5ae7e6bc185af5f45a75987ada06aa9b, type: 3}
    - time: 0.16666667
      value: {fileID: 21300004, guid: 5ae7e6bc185af5f45a75987ada06aa9b, type: 3}
    - time: 0.25
      value: {fileID: 21300006, guid: 5ae7e6bc185af5f45a75987ada06aa9b, type: 3}
    - time: 0.33333334
      value: {fileID: 21300008, guid: 5ae7e6bc185af5f45a75987ada06aa9b, type: 3}
    - time: 0.41666666
      value: {fileID: 21300010, guid: 5ae7e6bc185af5f45a75987ada06aa9b, type: 3}
    - time: 0.5
      value: {fileID: 21300000, guid: 90a0f97486582f64ba3287fa364cad22, type: 3}
    - time: 0.5833333
      value: {fileID: 21300002, guid: 90a0f97486582f64ba3287fa364cad22, type: 3}
    - time: 0.6666667
      value: {fileID: 21300004, guid: 90a0f97486582f64ba3287fa364cad22, type: 3}
    - time: 0.75
      value: {fileID: 21300006, guid: 90a0f97486582f64ba3287fa364cad22, type: 3}
    - time: 0.8333333
      value: {fileID: 21300008, guid: 90a0f97486582f64ba3287fa364cad22, type: 3}
    - time: 0.9166667
      value: {fileID: 21300010, guid: 90a0f97486582f64ba3287fa364cad22, type: 3}
    - time: 1
      value: {fileID: 21300000, guid: 9a0ce11496534434ab91c83d966fa6bc, type: 3}
    - time: 1.0833334
      value: {fileID: 21300002, guid: 9a0ce11496534434ab91c83d966fa6bc, type: 3}
    - time: 1.1666666
      value: {fileID: 21300004, guid: 9a0ce11496534434ab91c83d966fa6bc, type: 3}
    - time: 1.25
      value: {fileID: 21300006, guid: 9a0ce11496534434ab91c83d966fa6bc, type: 3}
    - time: 1.3333334
      value: {fileID: 21300008, guid: 9a0ce11496534434ab91c83d966fa6bc, type: 3}
    - time: 1.4166666
      value: {fileID: 21300010, guid: 9a0ce11496534434ab91c83d966fa6bc, type: 3}
    - time: 1.5
      value: {fileID: 21300000, guid: 27182bcd1075ab945904aee6defe85bb, type: 3}
    - time: 1.5833334
      value: {fileID: 21300002, guid: 27182bcd1075ab945904aee6defe85bb, type: 3}
    - time: 1.6666666
      value: {fileID: 21300004, guid: 27182bcd1075ab945904aee6defe85bb, type: 3}
    - time: 1.75
      value: {fileID: 21300006, guid: 27182bcd1075ab945904aee6defe85bb, type: 3}
    - time: 1.8333334
      value: {fileID: 21300008, guid: 27182bcd1075ab945904aee6defe85bb, type: 3}
    - time: 1.9166666
      value: {fileID: 21300010, guid: 27182bcd1075ab945904aee6defe85bb, type: 3}
    - time: 2
      value: {fileID: 21300000, guid: 00f5c28f4e2336f4a82c9beddc4a24cf, type: 3}
    - time: 2.0833333
      value: {fileID: 21300002, guid: 00f5c28f4e2336f4a82c9beddc4a24cf, type: 3}
    - time: 2.1666667
      value: {fileID: 21300004, guid: 00f5c28f4e2336f4a82c9beddc4a24cf, type: 3}
    - time: 2.25
      value: {fileID: 21300006, guid: 00f5c28f4e2336f4a82c9beddc4a24cf, type: 3}
    - time: 2.3333333
      value: {fileID: 21300008, guid: 00f5c28f4e2336f4a82c9beddc4a24cf, type: 3}
    - time: 2.4166667
      value: {fileID: 21300010, guid: 00f5c28f4e2336f4a82c9beddc4a24cf, type: 3}
    - time: 2.5
      value: {fileID: 21300000, guid: b284c0c3bf417a3438725669dc19cc4b, type: 3}
    - time: 2.5833333
      value: {fileID: 21300002, guid: b284c0c3bf417a3438725669dc19cc4b, type: 3}
    - time: 2.6666667
      value: {fileID: 21300004, guid: b284c0c3bf417a3438725669dc19cc4b, type: 3}
    - time: 2.75
      value: {fileID: 21300006, guid: b284c0c3bf417a3438725669dc19cc4b, type: 3}
    - time: 2.8333333
      value: {fileID: 21300008, guid: b284c0c3bf417a3438725669dc19cc4b, type: 3}
    - time: 2.9166667
      value: {fileID: 21300010, guid: b284c0c3bf417a3438725669dc19cc4b, type: 3}
    - time: 3
      value: {fileID: 21300000, guid: c8e07fa0b9a74fb4d8b50e9ed73d6a5c, type: 3}
    - time: 3.0833333
      value: {fileID: 21300002, guid: c8e07fa0b9a74fb4d8b50e9ed73d6a5c, type: 3}
    - time: 3.1666667
      value: {fileID: 21300004, guid: c8e07fa0b9a74fb4d8b50e9ed73d6a5c, type: 3}
    - time: 3.25
      value: {fileID: 21300006, guid: c8e07fa0b9a74fb4d8b50e9ed73d6a5c, type: 3}
    - time: 3.3333333
      value: {fileID: 21300008, guid: c8e07fa0b9a74fb4d8b50e9ed73d6a5c, type: 3}
    - time: 3.4166667
      value: {fileID: 21300010, guid: c8e07fa0b9a74fb4d8b50e9ed73d6a5c, type: 3}
    - time: 3.5
      value: {fileID: 21300000, guid: e93414d6870a32a4ca22b28f8b854675, type: 3}
    - time: 3.5833333
      value: {fileID: 21300002, guid: e93414d6870a32a4ca22b28f8b854675, type: 3}
    - time: 3.6666667
      value: {fileID: 21300004, guid: e93414d6870a32a4ca22b28f8b854675, type: 3}
    - time: 3.75
      value: {fileID: 21300006, guid: e93414d6870a32a4ca22b28f8b854675, type: 3}
    - time: 3.8333333
      value: {fileID: 21300008, guid: e93414d6870a32a4ca22b28f8b854675, type: 3}
    - time: 3.9166667
      value: {fileID: 21300010, guid: e93414d6870a32a4ca22b28f8b854675, type: 3}
    - time: 4
      value: {fileID: 21300000, guid: 4400083060ea7124cb90a693562fcd88, type: 3}
    - time: 4.0833335
      value: {fileID: 21300002, guid: 4400083060ea7124cb90a693562fcd88, type: 3}
    - time: 4.1666665
      value: {fileID: 21300004, guid: 4400083060ea7124cb90a693562fcd88, type: 3}
    - time: 4.25
      value: {fileID: 21300006, guid: 4400083060ea7124cb90a693562fcd88, type: 3}
    - time: 4.3333335
      value: {fileID: 21300008, guid: 4400083060ea7124cb90a693562fcd88, type: 3}
    - time: 4.4166665
      value: {fileID: 21300010, guid: 4400083060ea7124cb90a693562fcd88, type: 3}
    - time: 4.5
      value: {fileID: 21300000, guid: 78c9ab5ead3dcc243ba29de9c31cf987, type: 3}
    - time: 4.5833335
      value: {fileID: 21300002, guid: 78c9ab5ead3dcc243ba29de9c31cf987, type: 3}
    - time: 4.6666665
      value: {fileID: 21300004, guid: 78c9ab5ead3dcc243ba29de9c31cf987, type: 3}
    - time: 4.75
      value: {fileID: 21300006, guid: 78c9ab5ead3dcc243ba29de9c31cf987, type: 3}
    - time: 4.8333335
      value: {fileID: 21300008, guid: 78c9ab5ead3dcc243ba29de9c31cf987, type: 3}
    - time: 4.9166665
      value: {fileID: 21300010, guid: 78c9ab5ead3dcc243ba29de9c31cf987, type: 3}
    - time: 5
      value: {fileID: 21300000, guid: 16ecf98eb5f4094488ccc25b839e7a6f, type: 3}
    - time: 5.0833335
      value: {fileID: 21300002, guid: 16ecf98eb5f4094488ccc25b839e7a6f, type: 3}
    - time: 5.1666665
      value: {fileID: 21300004, guid: 16ecf98eb5f4094488ccc25b839e7a6f, type: 3}
    - time: 5.25
      value: {fileID: 21300006, guid: 16ecf98eb5f4094488ccc25b839e7a6f, type: 3}
    - time: 5.3333335
      value: {fileID: 21300008, guid: 16ecf98eb5f4094488ccc25b839e7a6f, type: 3}
    - time: 5.4166665
      value: {fileID: 21300010, guid: 16ecf98eb5f4094488ccc25b839e7a6f, type: 3}
    - time: 5.5
      value: {fileID: 21300000, guid: 831bacb4edbe58745adda91d9f86d435, type: 3}
    - time: 5.5833335
      value: {fileID: 21300002, guid: 831bacb4edbe58745adda91d9f86d435, type: 3}
    - time: 5.6666665
      value: {fileID: 21300004, guid: 831bacb4edbe58745adda91d9f86d435, type: 3}
    - time: 5.75
      value: {fileID: 21300006, guid: 831bacb4edbe58745adda91d9f86d435, type: 3}
    - time: 5.8333335
      value: {fileID: 21300008, guid: 831bacb4edbe58745adda91d9f86d435, type: 3}
    - time: 5.9166665
      value: {fileID: 21300010, guid: 831bacb4edbe58745adda91d9f86d435, type: 3}
    - time: 6
      value: {fileID: 21300000, guid: c9dac806575906c4e825760f3d37b6b1, type: 3}
    - time: 6.0833335
      value: {fileID: 21300002, guid: c9dac806575906c4e825760f3d37b6b1, type: 3}
    - time: 6.1666665
      value: {fileID: 21300004, guid: c9dac806575906c4e825760f3d37b6b1, type: 3}
    - time: 6.25
      value: {fileID: 21300006, guid: c9dac806575906c4e825760f3d37b6b1, type: 3}
    - time: 6.3333335
      value: {fileID: 21300008, guid: c9dac806575906c4e825760f3d37b6b1, type: 3}
    - time: 6.4166665
      value: {fileID: 21300010, guid: c9dac806575906c4e825760f3d37b6b1, type: 3}
    - time: 6.5
      value: {fileID: 21300000, guid: 44145979158ddfe4abbbab31fb164a83, type: 3}
    - time: 6.5833335
      value: {fileID: 21300002, guid: 44145979158ddfe4abbbab31fb164a83, type: 3}
    - time: 6.6666665
      value: {fileID: 21300004, guid: 44145979158ddfe4abbbab31fb164a83, type: 3}
    - time: 6.75
      value: {fileID: 21300006, guid: 44145979158ddfe4abbbab31fb164a83, type: 3}
    - time: 6.8333335
      value: {fileID: 21300008, guid: 44145979158ddfe4abbbab31fb164a83, type: 3}
    - time: 6.9166665
      value: {fileID: 21300010, guid: 44145979158ddfe4abbbab31fb164a83, type: 3}
    - time: 7
      value: {fileID: 21300000, guid: 96f342275faaacb40a1167a61e60bd73, type: 3}
    - time: 7.0833335
      value: {fileID: 21300002, guid: 96f342275faaacb40a1167a61e60bd73, type: 3}
    - time: 7.1666665
      value: {fileID: 21300004, guid: 96f342275faaacb40a1167a61e60bd73, type: 3}
    - time: 7.25
      value: {fileID: 21300006, guid: 96f342275faaacb40a1167a61e60bd73, type: 3}
    - time: 7.3333335
      value: {fileID: 21300008, guid: 96f342275faaacb40a1167a61e60bd73, type: 3}
    - time: 7.4166665
      value: {fileID: 21300010, guid: 96f342275faaacb40a1167a61e60bd73, type: 3}
    - time: 7.5
      value: {fileID: 21300000, guid: 93f80480ae0e97543a415b8a180ae0ab, type: 3}
    - time: 7.5833335
      value: {fileID: 21300002, guid: 93f80480ae0e97543a415b8a180ae0ab, type: 3}
    - time: 7.6666665
      value: {fileID: 21300004, guid: 93f80480ae0e97543a415b8a180ae0ab, type: 3}
    - time: 7.75
      value: {fileID: 21300006, guid: 93f80480ae0e97543a415b8a180ae0ab, type: 3}
    - time: 7.8333335
      value: {fileID: 21300008, guid: 93f80480ae0e97543a415b8a180ae0ab, type: 3}
    - time: 7.9166665
      value: {fileID: 21300010, guid: 93f80480ae0e97543a415b8a180ae0ab, type: 3}
    - time: 8
      value: {fileID: 21300000, guid: 5382c286e29158740b30ea6d88248664, type: 3}
    - time: 8.083333
      value: {fileID: 21300002, guid: 5382c286e29158740b30ea6d88248664, type: 3}
    - time: 8.166667
      value: {fileID: 21300004, guid: 5382c286e29158740b30ea6d88248664, type: 3}
    - time: 8.25
      value: {fileID: 21300006, guid: 5382c286e29158740b30ea6d88248664, type: 3}
    - time: 8.333333
      value: {fileID: 21300008, guid: 5382c286e29158740b30ea6d88248664, type: 3}
    - time: 8.416667
      value: {fileID: 21300010, guid: 5382c286e29158740b30ea6d88248664, type: 3}
    - time: 8.5
      value: {fileID: 21300000, guid: eb16138bf77534d49baa7aa227e80f5e, type: 3}
    - time: 8.583333
      value: {fileID: 21300002, guid: eb16138bf77534d49baa7aa227e80f5e, type: 3}
    - time: 8.666667
      value: {fileID: 21300004, guid: eb16138bf77534d49baa7aa227e80f5e, type: 3}
    - time: 8.75
      value: {fileID: 21300006, guid: eb16138bf77534d49baa7aa227e80f5e, type: 3}
    - time: 8.833333
      value: {fileID: 21300008, guid: eb16138bf77534d49baa7aa227e80f5e, type: 3}
    - time: 8.916667
      value: {fileID: 21300010, guid: eb16138bf77534d49baa7aa227e80f5e, type: 3}
    - time: 9
      value: {fileID: 21300000, guid: 88f2cac5348ae854fbff37561b37e063, type: 3}
    - time: 9.083333
      value: {fileID: 21300002, guid: 88f2cac5348ae854fbff37561b37e063, type: 3}
    - time: 9.166667
      value: {fileID: 21300004, guid: 88f2cac5348ae854fbff37561b37e063, type: 3}
    - time: 9.25
      value: {fileID: 21300006, guid: 88f2cac5348ae854fbff37561b37e063, type: 3}
    - time: 9.333333
      value: {fileID: 21300008, guid: 88f2cac5348ae854fbff37561b37e063, type: 3}
    - time: 9.416667
      value: {fileID: 21300010, guid: 88f2cac5348ae854fbff37561b37e063, type: 3}
    - time: 9.5
      value: {fileID: 21300000, guid: d34e3ff439196884eb8fb43392f6c462, type: 3}
    - time: 9.583333
      value: {fileID: 21300002, guid: d34e3ff439196884eb8fb43392f6c462, type: 3}
    - time: 9.666667
      value: {fileID: 21300004, guid: d34e3ff439196884eb8fb43392f6c462, type: 3}
    - time: 9.75
      value: {fileID: 21300006, guid: d34e3ff439196884eb8fb43392f6c462, type: 3}
    - time: 9.833333
      value: {fileID: 21300008, guid: d34e3ff439196884eb8fb43392f6c462, type: 3}
    - time: 9.916667
      value: {fileID: 21300010, guid: d34e3ff439196884eb8fb43392f6c462, type: 3}
    - time: 10
      value: {fileID: 21300000, guid: c205141bf01879d40887a15acab1e967, type: 3}
    - time: 10.083333
      value: {fileID: 21300002, guid: c205141bf01879d40887a15acab1e967, type: 3}
    - time: 10.166667
      value: {fileID: 21300004, guid: c205141bf01879d40887a15acab1e967, type: 3}
    - time: 10.25
      value: {fileID: 21300006, guid: c205141bf01879d40887a15acab1e967, type: 3}
    - time: 10.333333
      value: {fileID: 21300008, guid: c205141bf01879d40887a15acab1e967, type: 3}
    - time: 10.416667
      value: {fileID: 21300010, guid: c205141bf01879d40887a15acab1e967, type: 3}
    - time: 10.5
      value: {fileID: 21300000, guid: b71489fa3dd5e4745a17328d6107f90a, type: 3}
    - time: 10.583333
      value: {fileID: 21300002, guid: b71489fa3dd5e4745a17328d6107f90a, type: 3}
    - time: 10.666667
      value: {fileID: 21300004, guid: b71489fa3dd5e4745a17328d6107f90a, type: 3}
    - time: 10.75
      value: {fileID: 21300006, guid: b71489fa3dd5e4745a17328d6107f90a, type: 3}
    - time: 10.833333
      value: {fileID: 21300008, guid: b71489fa3dd5e4745a17328d6107f90a, type: 3}
    - time: 10.916667
      value: {fileID: 21300010, guid: b71489fa3dd5e4745a17328d6107f90a, type: 3}
    - time: 11
      value: {fileID: 21300000, guid: 1420784562dc16b4580f874322155825, type: 3}
    - time: 11.083333
      value: {fileID: 21300002, guid: 1420784562dc16b4580f874322155825, type: 3}
    - time: 11.166667
      value: {fileID: 21300004, guid: 1420784562dc16b4580f874322155825, type: 3}
    - time: 11.25
      value: {fileID: 21300006, guid: 1420784562dc16b4580f874322155825, type: 3}
    - time: 11.333333
      value: {fileID: 21300008, guid: 1420784562dc16b4580f874322155825, type: 3}
    - time: 11.416667
      value: {fileID: 21300010, guid: 1420784562dc16b4580f874322155825, type: 3}
    - time: 11.5
      value: {fileID: 21300000, guid: 518625b21121a80459f5107b7db8d039, type: 3}
    - time: 11.583333
      value: {fileID: 21300002, guid: 518625b21121a80459f5107b7db8d039, type: 3}
    - time: 11.666667
      value: {fileID: 21300004, guid: 518625b21121a80459f5107b7db8d039, type: 3}
    - time: 11.75
      value: {fileID: 21300006, guid: 518625b21121a80459f5107b7db8d039, type: 3}
    - time: 11.833333
      value: {fileID: 21300008, guid: 518625b21121a80459f5107b7db8d039, type: 3}
    - time: 11.916667
      value: {fileID: 21300010, guid: 518625b21121a80459f5107b7db8d039, type: 3}
    - time: 12
      value: {fileID: 21300000, guid: dbb2f7d5dfa104540b0ffeaac1c00534, type: 3}
    - time: 12.083333
      value: {fileID: 21300002, guid: dbb2f7d5dfa104540b0ffeaac1c00534, type: 3}
    - time: 12.166667
      value: {fileID: 21300004, guid: dbb2f7d5dfa104540b0ffeaac1c00534, type: 3}
    - time: 12.25
      value: {fileID: 21300006, guid: dbb2f7d5dfa104540b0ffeaac1c00534, type: 3}
    - time: 12.333333
      value: {fileID: 21300008, guid: dbb2f7d5dfa104540b0ffeaac1c00534, type: 3}
    - time: 12.416667
      value: {fileID: 21300010, guid: dbb2f7d5dfa104540b0ffeaac1c00534, type: 3}
    - time: 12.5
      value: {fileID: 21300000, guid: f2a72cfab67de434fb790f06b3e96edd, type: 3}
    - time: 12.583333
      value: {fileID: 21300002, guid: f2a72cfab67de434fb790f06b3e96edd, type: 3}
    - time: 12.666667
      value: {fileID: 21300004, guid: f2a72cfab67de434fb790f06b3e96edd, type: 3}
    - time: 12.75
      value: {fileID: 21300006, guid: f2a72cfab67de434fb790f06b3e96edd, type: 3}
    - time: 12.833333
      value: {fileID: 21300008, guid: f2a72cfab67de434fb790f06b3e96edd, type: 3}
    - time: 12.916667
      value: {fileID: 21300010, guid: f2a72cfab67de434fb790f06b3e96edd, type: 3}
    - time: 13
      value: {fileID: 21300000, guid: 8fd80a33d5d792941b98de3ca8822a6b, type: 3}
    - time: 13.083333
      value: {fileID: 21300002, guid: 8fd80a33d5d792941b98de3ca8822a6b, type: 3}
    - time: 13.166667
      value: {fileID: 21300004, guid: 8fd80a33d5d792941b98de3ca8822a6b, type: 3}
    - time: 13.25
      value: {fileID: 21300006, guid: 8fd80a33d5d792941b98de3ca8822a6b, type: 3}
    - time: 13.333333
      value: {fileID: 21300008, guid: 8fd80a33d5d792941b98de3ca8822a6b, type: 3}
    - time: 13.416667
      value: {fileID: 21300010, guid: 8fd80a33d5d792941b98de3ca8822a6b, type: 3}
    - time: 13.5
      value: {fileID: 21300000, guid: e170c674247a14949bbdb57ae0e6d931, type: 3}
    - time: 13.583333
      value: {fileID: 21300002, guid: e170c674247a14949bbdb57ae0e6d931, type: 3}
    - time: 13.666667
      value: {fileID: 21300004, guid: e170c674247a14949bbdb57ae0e6d931, type: 3}
    - time: 13.75
      value: {fileID: 21300006, guid: e170c674247a14949bbdb57ae0e6d931, type: 3}
    - time: 13.833333
      value: {fileID: 21300008, guid: e170c674247a14949bbdb57ae0e6d931, type: 3}
    - time: 13.916667
      value: {fileID: 21300010, guid: e170c674247a14949bbdb57ae0e6d931, type: 3}
    attribute: m_Sprite
    path: 
    classID: 212
    script: {fileID: 0}
  m_SampleRate: 12
  m_WrapMode: 0
  m_Bounds:
    m_Center: {x: 0, y: 0, z: 0}
    m_Extent: {x: 0, y: 0, z: 0}
  m_ClipBindingConstant:
    genericBindings:
    - serializedVersion: 2
      path: 0
      attribute: 0
      script: {fileID: 0}
      typeID: 212
      customType: 23
      isPPtrCurve: 1
    pptrCurveMapping:
    - {fileID: 21300000, guid: 5ae7e6bc185af5f45a75987ada06aa9b, type: 3}
    - {fileID: 21300002, guid: 5ae7e6bc185af5f45a75987ada06aa9b, type: 3}
    - {fileID: 21300004, guid: 5ae7e6bc185af5f45a75987ada06aa9b, type: 3}
    - {fileID: 21300006, guid: 5ae7e6bc185af5f45a75987ada06aa9b, type: 3}
    - {fileID: 21300008, guid: 5ae7e6bc185af5f45a75987ada06aa9b, type: 3}
    - {fileID: 21300010, guid: 5ae7e6bc185af5f45a75987ada06aa9b, type: 3}
    - {fileID: 21300000, guid: 90a0f97486582f64ba3287fa364cad22, type: 3}
    - {fileID: 21300002, guid: 90a0f97486582f64ba3287fa364cad22, type: 3}
    - {fileID: 21300004, guid: 90a0f97486582f64ba3287fa364cad22, type: 3}
    - {fileID: 21300006, guid: 90a0f97486582f64ba3287fa364cad22, type: 3}
    - {fileID: 21300008, guid: 90a0f97486582f64ba3287fa364cad22, type: 3}
    - {fileID: 21300010, guid: 90a0f97486582f64ba3287fa364cad22, type: 3}
    - {fileID: 21300000, guid: 9a0ce11496534434ab91c83d966fa6bc, type: 3}
    - {fileID: 21300002, guid: 9a0ce11496534434ab91c83d966fa6bc, type: 3}
    - {fileID: 21300004, guid: 9a0ce11496534434ab91c83d966fa6bc, type: 3}
    - {fileID: 21300006, guid: 9a0ce11496534434ab91c83d966fa6bc, type: 3}
    - {fileID: 21300008, guid: 9a0ce11496534434ab91c83d966fa6bc, type: 3}
    - {fileID: 21300010, guid: 9a0ce11496534434ab91c83d966fa6bc, type: 3}
    - {fileID: 21300000, guid: 27182bcd1075ab945904aee6defe85bb, type: 3}
    - {fileID: 21300002, guid: 27182bcd1075ab945904aee6defe85bb, type: 3}
    - {fileID: 21300004, guid: 27182bcd1075ab945904aee6defe85bb, type: 3}
    - {fileID: 21300006, guid: 27182bcd1075ab945904aee6defe85bb, type: 3}
    - {fileID: 21300008, guid: 27182bcd1075ab945904aee6defe85bb, type: 3}
    - {fileID: 21300010, guid: 27182bcd1075ab945904aee6defe85bb, type: 3}
    - {fileID: 21300000, guid: 00f5c28f4e2336f4a82c9beddc4a24cf, type: 3}
    - {fileID: 21300002, guid: 00f5c28f4e2336f4a82c9beddc4a24cf, type: 3}
    - {fileID: 21300004, guid: 00f5c28f4e2336f4a82c9beddc4a24cf, type: 3}
    - {fileID: 21300006, guid: 00f5c28f4e2336f4a82c9beddc4a24cf, type: 3}
    - {fileID: 21300008, guid: 00f5c28f4e2336f4a82c9beddc4a24cf, type: 3}
    - {fileID: 21300010, guid: 00f5c28f4e2336f4a82c9beddc4a24cf, type: 3}
    - {fileID: 21300000, guid: b284c0c3bf417a3438725669dc19cc4b, type: 3}
    - {fileID: 21300002, guid: b284c0c3bf417a3438725669dc19cc4b, type: 3}
    - {fileID: 21300004, guid: b284c0c3bf417a3438725669dc19cc4b, type: 3}
    - {fileID: 21300006, guid: b284c0c3bf417a3438725669dc19cc4b, type: 3}
    - {fileID: 21300008, guid: b284c0c3bf417a3438725669dc19cc4b, type: 3}
    - {fileID: 21300010, guid: b284c0c3bf417a3438725669dc19cc4b, type: 3}
    - {fileID: 21300000, guid: c8e07fa0b9a74fb4d8b50e9ed73d6a5c, type: 3}
    - {fileID: 21300002, guid: c8e07fa0b9a74fb4d8b50e9ed73d6a5c, type: 3}
    - {fileID: 21300004, guid: c8e07fa0b9a74fb4d8b50e9ed73d6a5c, type: 3}
    - {fileID: 21300006, guid: c8e07fa0b9a74fb4d8b50e9ed73d6a5c, type: 3}
    - {fileID: 21300008, guid: c8e07fa0b9a74fb4d8b50e9ed73d6a5c, type: 3}
    - {fileID: 21300010, guid: c8e07fa0b9a74fb4d8b50e9ed73d6a5c, type: 3}
    - {fileID: 21300000, guid: e93414d6870a32a4ca22b28f8b854675, type: 3}
    - {fileID: 21300002, guid: e93414d6870a32a4ca22b28f8b854675, type: 3}
    - {fileID: 21300004, guid: e93414d6870a32a4ca22b28f8b854675, type: 3}
    - {fileID: 21300006, guid: e93414d6870a32a4ca22b28f8b854675, type: 3}
    - {fileID: 21300008, guid: e93414d6870a32a4ca22b28f8b854675, type: 3}
    - {fileID: 21300010, guid: e93414d6870a32a4ca22b28f8b854675, type: 3}
    - {fileID: 21300000, guid: 4400083060ea7124cb90a693562fcd88, type: 3}
    - {fileID: 21300002, guid: 4400083060ea7124cb90a693562fcd88, type: 3}
    - {fileID: 21300004, guid: 4400083060ea7124cb90a693562fcd88, type: 3}
    - {fileID: 21300006, guid: 4400083060ea7124cb90a693562fcd88, type: 3}
    - {fileID: 21300008, guid: 4400083060ea7124cb90a693562fcd88, type: 3}
    - {fileID: 21300010, guid: 4400083060ea7124cb90a693562fcd88, type: 3}
    - {fileID: 21300000, guid: 78c9ab5ead3dcc243ba29de9c31cf987, type: 3}
    - {fileID: 21300002, guid: 78c9ab5ead3dcc243ba29de9c31cf987, type: 3}
    - {fileID: 21300004, guid: 78c9ab5ead3dcc243ba29de9c31cf987, type: 3}
    - {fileID: 21300006, guid: 78c9ab5ead3dcc243ba29de9c31cf987, type: 3}
    - {fileID: 21300008, guid: 78c9ab5ead3dcc243ba29de9c31cf987, type: 3}
    - {fileID: 21300010, guid: 78c9ab5ead3dcc243ba29de9c31cf987, type: 3}
    - {fileID: 21300000, guid: 16ecf98eb5f4094488ccc25b839e7a6f, type: 3}
    - {fileID: 21300002, guid: 16ecf98eb5f4094488ccc25b839e7a6f, type: 3}
    - {fileID: 21300004, guid: 16ecf98eb5f4094488ccc25b839e7a6f, type: 3}
    - {fileID: 21300006, guid: 16ecf98eb5f4094488ccc25b839e7a6f, type: 3}
    - {fileID: 21300008, guid: 16ecf98eb5f4094488ccc25b839e7a6f, type: 3}
    - {fileID: 21300010, guid: 16ecf98eb5f4094488ccc25b839e7a6f, type: 3}
    - {fileID: 21300000, guid: 831bacb4edbe58745adda91d9f86d435, type: 3}
    - {fileID: 21300002, guid: 831bacb4edbe58745adda91d9f86d435, type: 3}
    - {fileID: 21300004, guid: 831bacb4edbe58745adda91d9f86d435, type: 3}
    - {fileID: 21300006, guid: 831bacb4edbe58745adda91d9f86d435, type: 3}
    - {fileID: 21300008, guid: 831bacb4edbe58745adda91d9f86d435, type: 3}
    - {fileID: 21300010, guid: 831bacb4edbe58745adda91d9f86d435, type: 3}
    - {fileID: 21300000, guid: c9dac806575906c4e825760f3d37b6b1, type: 3}
    - {fileID: 21300002, guid: c9dac806575906c4e825760f3d37b6b1, type: 3}
    - {fileID: 21300004, guid: c9dac806575906c4e825760f3d37b6b1, type: 3}
    - {fileID: 21300006, guid: c9dac806575906c4e825760f3d37b6b1, type: 3}
    - {fileID: 21300008, guid: c9dac806575906c4e825760f3d37b6b1, type: 3}
    - {fileID: 21300010, guid: c9dac806575906c4e825760f3d37b6b1, type: 3}
    - {fileID: 21300000, guid: 44145979158ddfe4abbbab31fb164a83, type: 3}
    - {fileID: 21300002, guid: 44145979158ddfe4abbbab31fb164a83, type: 3}
    - {fileID: 21300004, guid: 44145979158ddfe4abbbab31fb164a83, type: 3}
    - {fileID: 21300006, guid: 44145979158ddfe4abbbab31fb164a83, type: 3}
    - {fileID: 21300008, guid: 44145979158ddfe4abbbab31fb164a83, type: 3}
    - {fileID: 21300010, guid: 44145979158ddfe4abbbab31fb164a83, type: 3}
    - {fileID: 21300000, guid: 96f342275faaacb40a1167a61e60bd73, type: 3}
    - {fileID: 21300002, guid: 96f342275faaacb40a1167a61e60bd73, type: 3}
    - {fileID: 21300004, guid: 96f342275faaacb40a1167a61e60bd73, type: 3}
    - {fileID: 21300006, guid: 96f342275faaacb40a1167a61e60bd73, type: 3}
    - {fileID: 21300008, guid: 96f342275faaacb40a1167a61e60bd73, type: 3}
    - {fileID: 21300010, guid: 96f342275faaacb40a1167a61e60bd73, type: 3}
    - {fileID: 21300000, guid: 93f80480ae0e97543a415b8a180ae0ab, type: 3}
    - {fileID: 21300002, guid: 93f80480ae0e97543a415b8a180ae0ab, type: 3}
    - {fileID: 21300004, guid: 93f80480ae0e97543a415b8a180ae0ab, type: 3}
    - {fileID: 21300006, guid: 93f80480ae0e97543a415b8a180ae0ab, type: 3}
    - {fileID: 21300008, guid: 93f80480ae0e97543a415b8a180ae0ab, type: 3}
    - {fileID: 21300010, guid: 93f80480ae0e97543a415b8a180ae0ab, type: 3}
    - {fileID: 21300000, guid: 5382c286e29158740b30ea6d88248664, type: 3}
    - {fileID: 21300002, guid: 5382c286e29158740b30ea6d88248664, type: 3}
    - {fileID: 21300004, guid: 5382c286e29158740b30ea6d88248664, type: 3}
    - {fileID: 21300006, guid: 5382c286e29158740b30ea6d88248664, type: 3}
    - {fileID: 21300008, guid: 5382c286e29158740b30ea6d88248664, type: 3}
    - {fileID: 21300010, guid: 5382c286e29158740b30ea6d88248664, type: 3}
    - {fileID: 21300000, guid: eb16138bf77534d49baa7aa227e80f5e, type: 3}
    - {fileID: 21300002, guid: eb16138bf77534d49baa7aa227e80f5e, type: 3}
    - {fileID: 21300004, guid: eb16138bf77534d49baa7aa227e80f5e, type: 3}
    - {fileID: 21300006, guid: eb16138bf77534d49baa7aa227e80f5e, type: 3}
    - {fileID: 21300008, guid: eb16138bf77534d49baa7aa227e80f5e, type: 3}
    - {fileID: 21300010, guid: eb16138bf77534d49baa7aa227e80f5e, type: 3}
    - {fileID: 21300000, guid: 88f2cac5348ae854fbff37561b37e063, type: 3}
    - {fileID: 21300002, guid: 88f2cac5348ae854fbff37561b37e063, type: 3}
    - {fileID: 21300004, guid: 88f2cac5348ae854fbff37561b37e063, type: 3}
    - {fileID: 21300006, guid: 88f2cac5348ae854fbff37561b37e063, type: 3}
    - {fileID: 21300008, guid: 88f2cac5348ae854fbff37561b37e063, type: 3}
    - {fileID: 21300010, guid: 88f2cac5348ae854fbff37561b37e063, type: 3}
    - {fileID: 21300000, guid: d34e3ff439196884eb8fb43392f6c462, type: 3}
    - {fileID: 21300002, guid: d34e3ff439196884eb8fb43392f6c462, type: 3}
    - {fileID: 21300004, guid: d34e3ff439196884eb8fb43392f6c462, type: 3}
    - {fileID: 21300006, guid: d34e3ff439196884eb8fb43392f6c462, type: 3}
    - {fileID: 21300008, guid: d34e3ff439196884eb8fb43392f6c462, type: 3}
    - {fileID: 21300010, guid: d34e3ff439196884eb8fb43392f6c462, type: 3}
    - {fileID: 21300000, guid: c205141bf01879d40887a15acab1e967, type: 3}
    - {fileID: 21300002, guid: c205141bf01879d40887a15acab1e967, type: 3}
    - {fileID: 21300004, guid: c205141bf01879d40887a15acab1e967, type: 3}
    - {fileID: 21300006, guid: c205141bf01879d40887a15acab1e967, type: 3}
    - {fileID: 21300008, guid: c205141bf01879d40887a15acab1e967, type: 3}
    - {fileID: 21300010, guid: c205141bf01879d40887a15acab1e967, type: 3}
    - {fileID: 21300000, guid: b71489fa3dd5e4745a17328d6107f90a, type: 3}
    - {fileID: 21300002, guid: b71489fa3dd5e4745a17328d6107f90a, type: 3}
    - {fileID: 21300004, guid: b71489fa3dd5e4745a17328d6107f90a, type: 3}
    - {fileID: 21300006, guid: b71489fa3dd5e4745a17328d6107f90a, type: 3}
    - {fileID: 21300008, guid: b71489fa3dd5e4745a17328d6107f90a, type: 3}
    - {fileID: 21300010, guid: b71489fa3dd5e4745a17328d6107f90a, type: 3}
    - {fileID: 21300000, guid: 1420784562dc16b4580f874322155825, type: 3}
    - {fileID: 21300002, guid: 1420784562dc16b4580f874322155825, type: 3}
    - {fileID: 21300004, guid: 1420784562dc16b4580f874322155825, type: 3}
    - {fileID: 21300006, guid: 1420784562dc16b4580f874322155825, type: 3}
    - {fileID: 21300008, guid: 1420784562dc16b4580f874322155825, type: 3}
    - {fileID: 21300010, guid: 1420784562dc16b4580f874322155825, type: 3}
    - {fileID: 21300000, guid: 518625b21121a80459f5107b7db8d039, type: 3}
    - {fileID: 21300002, guid: 518625b21121a80459f5107b7db8d039, type: 3}
    - {fileID: 21300004, guid: 518625b21121a80459f5107b7db8d039, type: 3}
    - {fileID: 21300006, guid: 518625b21121a80459f5107b7db8d039, type: 3}
    - {fileID: 21300008, guid: 518625b21121a80459f5107b7db8d039, type: 3}
    - {fileID: 21300010, guid: 518625b21121a80459f5107b7db8d039, type: 3}
    - {fileID: 21300000, guid: dbb2f7d5dfa104540b0ffeaac1c00534, type: 3}
    - {fileID: 21300002, guid: dbb2f7d5dfa104540b0ffeaac1c00534, type: 3}
    - {fileID: 21300004, guid: dbb2f7d5dfa104540b0ffeaac1c00534, type: 3}
    - {fileID: 21300006, guid: dbb2f7d5dfa104540b0ffeaac1c00534, type: 3}
    - {fileID: 21300008, guid: dbb2f7d5dfa104540b0ffeaac1c00534, type: 3}
    - {fileID: 21300010, guid: dbb2f7d5dfa104540b0ffeaac1c00534, type: 3}
    - {fileID: 21300000, guid: f2a72cfab67de434fb790f06b3e96edd, type: 3}
    - {fileID: 21300002, guid: f2a72cfab67de434fb790f06b3e96edd, type: 3}
    - {fileID: 21300004, guid: f2a72cfab67de434fb790f06b3e96edd, type: 3}
    - {fileID: 21300006, guid: f2a72cfab67de434fb790f06b3e96edd, type: 3}
    - {fileID: 21300008, guid: f2a72cfab67de434fb790f06b3e96edd, type: 3}
    - {fileID: 21300010, guid: f2a72cfab67de434fb790f06b3e96edd, type: 3}
    - {fileID: 21300000, guid: 8fd80a33d5d792941b98de3ca8822a6b, type: 3}
    - {fileID: 21300002, guid: 8fd80a33d5d792941b98de3ca8822a6b, type: 3}
    - {fileID: 21300004, guid: 8fd80a33d5d792941b98de3ca8822a6b, type: 3}
    - {fileID: 21300006, guid: 8fd80a33d5d792941b98de3ca8822a6b, type: 3}
    - {fileID: 21300008, guid: 8fd80a33d5d792941b98de3ca8822a6b, type: 3}
    - {fileID: 21300010, guid: 8fd80a33d5d792941b98de3ca8822a6b, type: 3}
    - {fileID: 21300000, guid: e170c674247a14949bbdb57ae0e6d931, type: 3}
    - {fileID: 21300002, guid: e170c674247a14949bbdb57ae0e6d931, type: 3}
    - {fileID: 21300004, guid: e170c674247a14949bbdb57ae0e6d931, type: 3}
    - {fileID: 21300006, guid: e170c674247a14949bbdb57ae0e6d931, type: 3}
    - {fileID: 21300008, guid: e170c674247a14949bbdb57ae0e6d931, type: 3}
    - {fileID: 21300010, guid: e170c674247a14949bbdb57ae0e6d931, type: 3}
  m_AnimationClipSettings:
    serializedVersion: 2
    m_AdditiveReferencePoseClip: {fileID: 0}
    m_AdditiveReferencePoseTime: 0
    m_StartTime: 0
    m_StopTime: 14
    m_OrientationOffsetY: 0
    m_Level: 0
    m_CycleOffset: 0
    m_HasAdditiveReferencePose: 0
    m_LoopTime: 1
    m_LoopBlend: 0
    m_LoopBlendOrientation: 0
    m_LoopBlendPositionY: 0
    m_LoopBlendPositionXZ: 0
    m_KeepOriginalOrientation: 0
    m_KeepOriginalPositionY: 1
    m_KeepOriginalPositionXZ: 0
    m_HeightFromFeet: 0
    m_Mirror: 0
  m_EditorCurves: []
  m_EulerEditorCurves: []
  m_HasGenericRootTransform: 0
  m_HasMotionFloatCurves: 0
  m_Events: []
