%YAML 1.1
%TAG !u! tag:unity3d.com,2011:
--- !u!74 &7400000
AnimationClip:
  m_ObjectHideFlags: 0
  m_CorrespondingSourceObject: {fileID: 0}
  m_PrefabInstance: {fileID: 0}
  m_PrefabAsset: {fileID: 0}
  m_Name: Walk2
  serializedVersion: 6
  m_Legacy: 0
  m_Compressed: 0
  m_UseHighQualityCurve: 1
  m_RotationCurves: []
  m_CompressedRotationCurves: []
  m_EulerCurves: []
  m_PositionCurves: []
  m_ScaleCurves: []
  m_FloatCurves: []
  m_PPtrCurves:
  - curve:
    - time: 0
      value: {fileID: 21300000, guid: b6262f725aad44b4e9f7761826d3dc9e, type: 3}
    - time: 0.083333336
      value: {fileID: 21300000, guid: f192264992391a14fb2a6d44c7251f1b, type: 3}
    - time: 0.16666667
      value: {fileID: 21300000, guid: 95bb04822c3385e4c95ca82e80cb0e96, type: 3}
    - time: 0.25
      value: {fileID: 21300000, guid: 92cbaa81c193195418d034b1eae69e96, type: 3}
    - time: 0.33333334
      value: {fileID: 21300000, guid: e3fef3ebcb68a3b4dae0445556c1212c, type: 3}
    - time: 0.41666666
      value: {fileID: 21300000, guid: 3689ec9f1b0b7fd43b94f7582625be56, type: 3}
    - time: 0.5
      value: {fileID: 21300000, guid: 6bdb3332ba3d26043a6ffeb12a099d1a, type: 3}
    attribute: m_Sprite
    path: 
    classID: 212
    script: {fileID: 0}
  m_SampleRate: 12
  m_WrapMode: 0
  m_Bounds:
    m_Center: {x: 0, y: 0, z: 0}
    m_Extent: {x: 0, y: 0, z: 0}
  m_ClipBindingConstant:
    genericBindings:
    - serializedVersion: 2
      path: 0
      attribute: 0
      script: {fileID: 0}
      typeID: 212
      customType: 23
      isPPtrCurve: 1
    pptrCurveMapping:
    - {fileID: 21300000, guid: b6262f725aad44b4e9f7761826d3dc9e, type: 3}
    - {fileID: 21300000, guid: f192264992391a14fb2a6d44c7251f1b, type: 3}
    - {fileID: 21300000, guid: 95bb04822c3385e4c95ca82e80cb0e96, type: 3}
    - {fileID: 21300000, guid: 92cbaa81c193195418d034b1eae69e96, type: 3}
    - {fileID: 21300000, guid: e3fef3ebcb68a3b4dae0445556c1212c, type: 3}
    - {fileID: 21300000, guid: 3689ec9f1b0b7fd43b94f7582625be56, type: 3}
    - {fileID: 21300000, guid: 6bdb3332ba3d26043a6ffeb12a099d1a, type: 3}
  m_AnimationClipSettings:
    serializedVersion: 2
    m_AdditiveReferencePoseClip: {fileID: 0}
    m_AdditiveReferencePoseTime: 0
    m_StartTime: 0
    m_StopTime: 0.5833333
    m_OrientationOffsetY: 0
    m_Level: 0
    m_CycleOffset: 0
    m_HasAdditiveReferencePose: 0
    m_LoopTime: 1
    m_LoopBlend: 0
    m_LoopBlendOrientation: 0
    m_LoopBlendPositionY: 0
    m_LoopBlendPositionXZ: 0
    m_KeepOriginalOrientation: 0
    m_KeepOriginalPositionY: 1
    m_KeepOriginalPositionXZ: 0
    m_HeightFromFeet: 0
    m_Mirror: 0
  m_EditorCurves: []
  m_EulerEditorCurves: []
  m_HasGenericRootTransform: 0
  m_HasMotionFloatCurves: 0
  m_Events: []
